{
	"_v": "16.2",
	"clients": [{
		"client_id": "aaaaaaaaaaaaaaaaaaaaaaaaaaaaaa",
		"resources": [{
			"resource_id": "/libraries/*/folders/*",
			"methods": ["get", "put", "patch", "delete"],
			"read_attributes": "(**)",
			"write_attributes": "(**)"
		}, {
			"resource_id": "/libraries/*/folders/*/content",
			"methods": ["get"],
			"read_attributes": "(**)",
			"write_attributes": "(**)"
		}, {
			"resource_id": "/libraries/*/folders/*/sub_folders",
			"methods": ["get"],
			"read_attributes": "(**)",
			"write_attributes": "(**)"
		}, {
			"resource_id": "/libraries/*/content/*",
			"methods": ["get", "put", "patch", "delete"],
			"read_attributes": "(**)",
			"write_attributes": "(**)"
		}, {
			"resource_id": "/libraries/*/content/*/folders",
			"methods": ["get"],
			"read_attributes": "(**)",
			"write_attributes": "(**)"
		}, {
			"resource_id": "/libraries/*/folder_assignments/*/*",
			"methods": ["get", "put", "delete"],
			"read_attributes": "(**)",
			"write_attributes": "(**)"
		}, {
			"resource_id": "/sites/*/slot_configurations",
			"methods": ["post"],
			"read_attributes": "(**)",
			"write_attributes": "(**)"
		}, {
			"resource_id": "/sites/*/slot_configurations/*",
			"methods": ["get", "patch", "delete"],
			"read_attributes": "(**)",
			"write_attributes": "(**)"
		}, {
			"resource_id": "/libraries/{library_id}/content/{content_id}",
			"methods": ["get", "put", "delete"],
			"read_attributes": "(**)",
			"write_attributes": "(**)",
			"cache_time": 900
		}, {
			"resource_id": "/libraries/{library_id}/folders/{folder_id}/content",
			"methods": ["get"],
			"read_attributes": "(**)",
			"write_attributes": "(**)",
			"cache_time": 900
		}, {
			"resource_id": "/libraries/{library_id}/folder_assignments/{content_id}/{folder_id}",
			"methods": ["get", "put", "delete"],
			"read_attributes": "(**)",
			"write_attributes": "(**)",
			"cache_time": 900
		}]
	}]
}
