<?xml version="1.0" encoding="UTF-8"?>
<svg width="25px" height="22px" viewBox="0 0 25 22" version="1.1" xmlns="http://www.w3.org/2000/svg" xmlns:xlink="http://www.w3.org/1999/xlink">
    <!-- Generator: Sketch 47 (45396) - http://www.bohemiancoding.com/sketch -->
    <title>Group 3</title>
    <desc>Created with Sketch.</desc>
    <defs></defs>
    <g id="Page-1" stroke="none" stroke-width="1" fill="none" fill-rule="evenodd">
        <g id="MF_Homepage_Mobile_Nav" transform="translate(-285.000000, -26.000000)">
            <g id="Group-3" transform="translate(285.000000, 27.000000)">
                <path d="M0.500120682,1 C0.223904029,1 0,1.22385747 0,1.49999994 C0,1.7761424 0.223904029,1.99999238 0.500120682,1.99999238 L3.16481361,1.99999238 C4.44304705,5.15981698 5.69714968,8.32591658 6.96263004,11.4922012 L5.79044719,14.3046758 C5.66199119,14.6074758 5.92252906,15.0004007 6.25150844,15.0000007 L18.7545255,15.0000007 C19.0187392,15.0037507 19.2617729,14.7641758 19.2617729,14.5000008 C19.2617729,14.2358008 19.0187392,13.9962509 18.7545255,14.0000009 L7.00168947,14.0000009 L7.84564312,11.9687511 L20.0438866,10.9922013 C20.2524369,10.9749513 20.4409574,10.8129263 20.4893191,10.6093763 L21.9896811,4.10936711 C22.0547218,3.81919215 21.802636,3.50211969 21.5051892,3.49999219 L4.83711715,3.49999219 L3.96190595,1.31250246 C3.88803813,1.12999248 3.69776721,1.001025 3.5008447,1.0000025 L0.500120682,1 Z M5.23563831,4.49999206 L20.8800384,4.49999206 L19.5984791,10.0312414 L7.83001435,10.9687513 L5.23563831,4.49999206 Z M8.75211185,16.5000006 C7.51511336,16.5000006 6.50156879,17.5132754 6.50156879,18.7500003 C6.50156879,19.9867251 7.51511336,21 8.75211185,21 C9.98913535,21 11.0026549,19.9867251 11.0026549,18.7500003 C11.0026549,17.5132754 9.98913535,16.5000006 8.75211185,16.5000006 Z M16.2539221,16.5000006 C15.0168986,16.5000006 14.003379,17.5132754 14.003379,18.7500003 C14.003379,19.9867251 15.0168986,21 16.2539221,21 C17.4909206,21 18.5044651,19.9867251 18.5044651,18.7500003 C18.5044651,17.5132754 17.4909206,16.5000006 16.2539221,16.5000006 Z M8.75211185,17.5000004 C9.44855491,17.5000004 10.0024136,18.0537254 10.0024136,18.7500003 C10.0024136,19.4462752 9.44855491,20.0000001 8.75211185,20.0000001 C8.0556938,20.0000001 7.50181015,19.4462752 7.50181015,18.7500003 C7.50181015,18.0537254 8.0556938,17.5000004 8.75211185,17.5000004 Z M16.2539221,17.5000004 C16.9503401,17.5000004 17.5042238,18.0537254 17.5042238,18.7500003 C17.5042238,19.4462752 16.9503401,20.0000001 16.2539221,20.0000001 C15.557479,20.0000001 15.0036204,19.4462752 15.0036204,18.7500003 C15.0036204,18.0537254 15.557479,17.5000004 16.2539221,17.5000004 Z" id="Shape" fill="#323030" fill-rule="nonzero"></path>
                <circle id="Oval-3-Copy" stroke="#D53426" stroke-width="1.17325" fill="#D53426" cx="21" cy="3" r="3"></circle>
            </g>
        </g>
    </g>
</svg>