<svg xmlns="http://www.w3.org/2000/svg" xmlns:xlink="http://www.w3.org/1999/xlink" preserveAspectRatio="xMidYMid" width="36" height="27" viewBox="0 0 36 27">
  <defs>
    <style>
      .cls-1 {
        fill: #e5173e;
        fill-rule: evenodd;
      }
    </style>
  </defs>
  <path d="M31.299,20.644 L10.125,20.644 L5.498,5.267 L3.925,3.843 L3.083,4.785 C2.608,5.318 1.793,5.361 1.264,4.882 L0.430,4.127 C-0.099,3.647 -0.142,2.828 0.334,2.295 L1.520,0.967 C1.521,0.966 1.523,0.966 1.524,0.965 L2.383,0.003 L7.077,4.256 L11.463,18.829 L29.951,18.829 L34.268,4.052 L35.997,4.564 L31.299,20.644 ZM14.400,16.106 L14.400,14.291 L26.118,14.291 L26.118,16.106 L14.400,16.106 ZM11.696,9.753 L28.822,9.753 L28.822,11.568 L11.696,11.568 L11.696,9.753 ZM9.893,4.308 L30.625,4.308 L30.625,6.123 L9.893,6.123 L9.893,4.308 ZM11.696,21.552 C13.189,21.552 14.400,22.771 14.400,24.274 C14.400,25.778 13.189,26.997 11.696,26.997 C10.202,26.997 8.991,25.778 8.991,24.274 C8.991,22.771 10.202,21.552 11.696,21.552 ZM29.724,21.552 C31.217,21.552 32.428,22.771 32.428,24.274 C32.428,25.778 31.217,26.997 29.724,26.997 C28.230,26.997 27.020,25.778 27.020,24.274 C27.020,22.771 28.230,21.552 29.724,21.552 Z" class="cls-1"/>
</svg>
