<?xml version="1.0" encoding="utf-8"?>
<!-- Generator: Adobe Illustrator 21.1.0, SVG Export Plug-In . SVG Version: 6.00 Build 0)  -->
<svg version="1.1" id="Layer_1" xmlns="http://www.w3.org/2000/svg" xmlns:xlink="http://www.w3.org/1999/xlink" x="0px" y="0px"
	 viewBox="0 0 13 19" style="enable-background:new 0 0 13 19;" xml:space="preserve">
<style type="text/css">
	.st0{fill:#D63426;}
</style>
<path class="st0" d="M6.5,0C2.9,0,0,2.8,0,6.3C0,9.8,6.5,19,6.5,19S13,9.8,13,6.3C13,2.8,10.1,0,6.5,0z M6.5,10.1
	c-2.2,0-3.9-1.7-3.9-3.8c0-2.1,1.7-3.8,3.9-3.8s3.9,1.7,3.9,3.8C10.4,8.4,8.7,10.1,6.5,10.1z"/>
</svg>
