<svg xmlns="http://www.w3.org/2000/svg" width="28" height="27" viewBox="0 0 28 27">
    <defs>
        <radialGradient id="a" cx="17.539%" cy="17.47%" r="93.283%" fx="17.539%" fy="17.47%" gradientTransform="matrix(.99766 0 0 1 0 0)">
            <stop offset="0%" stop-color="#9DD5F6"/>
            <stop offset="7.11%" stop-color="#98D3F5"/>
            <stop offset="15.75%" stop-color="#89CEF3"/>
            <stop offset="25.16%" stop-color="#70C6EF"/>
            <stop offset="35.14%" stop-color="#4EBBEA"/>
            <stop offset="45.46%" stop-color="#23ADE3"/>
            <stop offset="50%" stop-color="#0DA6E0"/>
            <stop offset="100%" stop-color="#2E77BC"/>
        </radialGradient>
    </defs>
    <g fill="none" fill-rule="nonzero">
        <path fill="url(#a)" d="M26.9 0H0v26.997h26.9v-8.91a1.02 1.02 0 0 0 .16-.593c0-.277-.054-.448-.16-.592"/>
        <path fill="#FFF" d="M2.425 11.682l-.518-1.261-.514 1.26h1.032zm11.4-.502a.7.7 0 0 1-.374.065h-.919v-.703h.931c.123-.01.246.01.359.057a.29.29 0 0 1 .159.28.323.323 0 0 1-.156.3zm6.552.502l-.523-1.261-.52 1.26h1.043zM8.163 13.047h-.775l-.003-2.478-1.096 2.478h-.664l-1.099-2.48v2.48H2.988l-.29-.706H1.124l-.294.706H.009l1.354-3.163h1.123l1.286 2.994V9.884h1.234l.99 2.146.908-2.146h1.26v3.163zm3.09 0H8.726V9.884h2.525v.658h-1.77v.57h1.728v.649H9.483v.632h1.77v.654zm3.56-2.311a.89.89 0 0 1-.532.843.877.877 0 0 1 .374.266c.107.157.125.298.125.58v.622h-.763l-.002-.4c0-.19.018-.463-.12-.615-.11-.112-.279-.136-.55-.136h-.812v1.15h-.757V9.885h1.74c.386 0 .67.01.915.151.24.142.383.348.383.7zm1.21 2.31h-.77V9.885h.77v3.163zm8.95 0h-1.071l-1.433-2.373v2.374h-1.54l-.294-.706h-1.57l-.286.706h-.885c-.367 0-.833-.081-1.096-.35-.266-.269-.404-.632-.404-1.208 0-.469.083-.898.408-1.236.244-.253.627-.37 1.148-.37h.732v.678h-.717c-.276 0-.432.042-.582.188-.129.133-.217.385-.217.716 0 .34.067.584.208.743.116.125.328.163.527.163h.34l1.065-2.487h1.133l1.28 2.992V9.884h1.151l1.329 2.203V9.884h.774v3.163zM0 13.669h1.292l.291-.702h.652l.29.702h2.543v-.537l.226.54h1.32l.227-.548v.545h6.316l-.003-1.153h.123c.085.003.11.01.11.152v1.001h3.267V13.4c.377.186.793.278 1.213.268h1.374l.294-.702h.653l.287.702h2.649v-.667l.4.667h2.123V9.257h-2.1v.52l-.294-.52h-2.156v.52l-.27-.52h-2.911c-.487 0-.916.068-1.262.257v-.257h-2.009v.257c-.22-.195-.52-.257-.854-.257h-7.34l-.492 1.139-.506-1.14H3.141v.522l-.254-.521H.916L0 11.354v2.314zM26.9 16.001H25.52a.524.524 0 0 0-.305.057.246.246 0 0 0-.111.228.239.239 0 0 0 .165.236c.095.028.193.04.292.036l.41.01c.413.01.689.082.857.255.027.023.05.05.07.078v-.9zm0 2.086c-.184.269-.542.405-1.027.405h-1.46v-.679h1.455c.144 0 .245-.019.305-.078a.278.278 0 0 0 .09-.206.26.26 0 0 0-.092-.21.384.384 0 0 0-.267-.07c-.71-.024-1.595.022-1.595-.979 0-.459.29-.942 1.084-.942H26.9v-.63H25.5c-.422 0-.729.102-.946.259v-.258h-2.07c-.33 0-.72.082-.903.258v-.258h-3.696v.258c-.294-.212-.79-.258-1.02-.258h-2.437v.258c-.233-.225-.75-.258-1.066-.258h-2.728l-.624.675-.585-.675H5.349v4.414h4l.642-.686.606.686 2.465.002v-1.038h.243c.327.005.712-.008 1.053-.155v1.191h2.033v-1.15h.098c.125 0 .138.005.138.13v1.02h6.176c.392 0 .802-.1 1.029-.282v.282h1.959c.407 0 .806-.057 1.108-.203v-.823zm-3.016-1.264c.147.152.226.345.226.67 0 .681-.426.999-1.188.999h-1.473v-.679h1.467c.11.013.22-.015.309-.078a.28.28 0 0 0 .09-.206.271.271 0 0 0-.093-.21.398.398 0 0 0-.27-.07c-.706-.024-1.592.022-1.592-.979 0-.459.288-.942 1.081-.942h1.516v.673H22.57a.512.512 0 0 0-.303.058.265.265 0 0 0 .052.463.87.87 0 0 0 .294.036l.407.01c.41.01.692.082.864.255zm-6.823-.195a.724.724 0 0 1-.373.065h-.919v-.71h.931a.746.746 0 0 1 .361.056.301.301 0 0 1 .157.285.341.341 0 0 1-.157.304zm.457.393a.822.822 0 0 1 .37.266c.107.155.122.299.125.578v.627h-.759v-.396c0-.19.019-.472-.122-.62-.11-.113-.279-.14-.554-.14h-.808v1.156h-.76v-3.164h1.745c.383 0 .662.017.91.15a.74.74 0 0 1 .389.702.886.886 0 0 1-.536.842zm.955-1.693h2.523v.654h-1.77v.575h1.727v.646h-1.727v.63l1.77.002v.657h-2.523v-3.164zm-5.101 1.46h-.977v-.806h.986c.273 0 .462.112.462.388 0 .274-.18.418-.471.418zm-1.73 1.416l-1.161-1.289 1.16-1.247v2.536zm-2.998-.372H6.785v-.629h1.66v-.645h-1.66v-.576h1.896l.827.922-.864.928zm6.01-1.462c0 .88-.655 1.06-1.316 1.06h-.943v1.062h-1.47l-.93-1.048-.968 1.048H6.032v-3.164h3.04l.931 1.037.962-1.037h2.416c.6 0 1.274.166 1.274 1.042z"/>
    </g>
</svg>
