<svg xmlns="http://www.w3.org/2000/svg" xmlns:xlink="http://www.w3.org/1999/xlink" width="94" height="16" viewBox="0 0 94 16">
    <defs>
        <path id="a" d="M0 15.862h93.166V0H0z"/>
    </defs>
    <g fill="none" fill-rule="evenodd">
        <path fill="#231F20" d="M7.605 11.704c-.906.82-2.084 1.176-3.948 1.176h-.774V3.1h.774c1.864 0 2.996.333 3.948 1.196.998.888 1.598 2.265 1.598 3.681 0 1.42-.6 2.84-1.598 3.727M4.235.594H0v14.79h4.213c2.24 0 3.857-.528 5.277-1.708A7.42 7.42 0 0 0 12.175 8c0-4.365-3.261-7.406-7.94-7.406"/>
        <mask id="b" fill="#fff">
            <use xlink:href="#a"/>
        </mask>
        <path fill="#231F20" d="M13.502 15.384h2.885V.593h-2.885zM23.442 6.269c-1.731-.64-2.24-1.063-2.24-1.862 0-.932.906-1.64 2.15-1.64.864 0 1.575.356 2.326 1.198l1.51-1.977A6.47 6.47 0 0 0 22.84.35c-2.617 0-4.613 1.817-4.613 4.238 0 2.037.93 3.08 3.64 4.056 1.129.399 1.704.664 1.993.842.577.377.866.91.866 1.53 0 1.2-.953 2.087-2.24 2.087-1.376 0-2.485-.688-3.15-1.973l-1.863 1.795c1.33 1.951 2.926 2.816 5.121 2.816 2.998 0 5.101-1.994 5.101-4.857 0-2.35-.972-3.413-4.254-4.614M28.606 7.999c0 4.347 3.414 7.718 7.807 7.718 1.242 0 2.306-.244 3.617-.862V11.46c-1.153 1.155-2.175 1.62-3.483 1.62-2.905 0-4.968-2.106-4.968-5.102 0-2.84 2.128-5.08 4.834-5.08 1.376 0 2.418.492 3.617 1.665V1.167C38.764.525 37.723.26 36.481.26c-4.37 0-7.875 3.44-7.875 7.74M62.905 10.528L58.961.593H55.81l6.277 15.17h1.553l6.39-15.17H66.9zM71.333 15.384h8.182V12.88h-5.3V8.887h5.105V6.382h-5.104V3.1h5.299V.593h-8.182zM85.15 7.403h-.843v-4.48h.889c1.797 0 2.773.753 2.773 2.192 0 1.487-.976 2.288-2.82 2.288m5.789-2.443c0-2.77-1.908-4.367-5.234-4.367h-4.279v14.79h2.882V9.443h.377l3.993 5.942h3.548l-4.657-6.231c2.173-.442 3.37-1.929 3.37-4.193" mask="url(#b)"/>
        <path fill="#F48025" d="M56.675 7.998a7.863 7.863 0 0 1-7.864 7.864 7.864 7.864 0 0 1-7.864-7.864A7.864 7.864 0 0 1 48.81.134a7.863 7.863 0 0 1 7.864 7.864" mask="url(#b)"/>
        <path fill="#231F20" d="M91.931 1.064h-.052v-.34h.056c.152 0 .233.056.233.168 0 .114-.082.172-.237.172m.547-.178c0-.258-.178-.4-.492-.4h-.418v1.3h.31V1.28l.365.505h.378l-.428-.536c.183-.05.285-.183.285-.364" mask="url(#b)"/>
        <path fill="#231F20" d="M92.044 2.064a.916.916 0 0 1-.903-.929c0-.518.4-.93.903-.93.494 0 .897.421.897.93 0 .511-.403.93-.897.93M92.048 0c-.632 0-1.133.504-1.133 1.133 0 .63.507 1.133 1.133 1.133a1.13 1.13 0 0 0 1.119-1.133A1.13 1.13 0 0 0 92.048 0" mask="url(#b)"/>
    </g>
</svg>
