<svg xmlns="http://www.w3.org/2000/svg" width="16" height="14" viewBox="0 0 16 14">
    <path fill="#646464" fill-rule="evenodd" d="M14.557.478a.67.67 0 0 0-.933 0L5.348 8.61a.67.67 0 0 1-.933 0l-2.04-2.002a.67.67 0 0 0-.932 0l-1.25 1.23a.642.642 0 0 0 0 .916L4.414 12.9a.67.67 0 0 0 .933 0l10.46-10.277a.643.643 0 0 0 0-.917L14.558.478z"/>
</svg>
