<?xml version="1.0" encoding="utf-8"?>
<!-- Generator: Adobe Illustrator 17.0.0, SVG Export Plug-In . SVG Version: 6.00 Build 0)  -->
<!DOCTYPE svg PUBLIC "-//W3C//DTD SVG 1.1//EN" "http://www.w3.org/Graphics/SVG/1.1/DTD/svg11.dtd">
<svg version="1.1" id="Layer_1" xmlns="http://www.w3.org/2000/svg" xmlns:xlink="http://www.w3.org/1999/xlink" x="0px" y="0px"
	 width="79px" height="21px" viewBox="0 0 79 21" enable-background="new 0 0 79 21" xml:space="preserve">
<g transform="translate(0,-952.36218)">
	<path fill="#85C441" stroke="#6BBD45" stroke-miterlimit="10" d="M16.024,956.215l-7.503,7.799l-3.963-3.223L2,963.94l5.411,4.396
		l1.448,1.173l1.289-1.342l8.793-9.131L16.024,956.215L16.024,956.215z"/>
</g>
<g id="Payment_x2F_Visa" display="none">
	<g id="payment-icon-Visa" display="inline">
		<path id="Rectangle" fill="#293579" d="M31.893,0H62.19c1.287,0,2.331,1.043,2.331,2.331v16.314c0,1.287-1.043,2.331-2.331,2.331
			H31.893c-1.287,0-2.331-1.043-2.331-2.331V2.331C29.563,1.043,30.606,0,31.893,0z"/>
		<polyline id="Fill-3" fill="#FFFFFF" points="44.067,13.825 45.142,7.157 46.86,7.157 45.785,13.825 44.067,13.825 		"/>
		<path id="Fill-4" fill="#FFFFFF" d="M52.017,7.321c-0.34-0.134-0.874-0.28-1.54-0.28c-1.699,0-2.894,0.905-2.904,2.201
			c-0.011,0.958,0.853,1.493,1.505,1.812c0.67,0.327,0.894,0.536,0.892,0.827c-0.005,0.447-0.534,0.651-1.028,0.651
			c-0.688,0-1.053-0.101-1.618-0.35l-0.221-0.106l-0.24,1.493c0.401,0.186,1.143,0.347,1.914,0.355c1.805,0,2.978-0.894,2.992-2.278
			c0.006-0.76-0.452-1.336-1.443-1.812c-0.6-0.309-0.969-0.514-0.965-0.827c0-0.277,0.311-0.574,0.984-0.574
			c0.562-0.009,0.969,0.121,1.286,0.256l0.154,0.076L52.017,7.321"/>
		<path id="Fill-5" fill="#FFFFFF" d="M54.305,11.461c0.142-0.383,0.684-1.864,0.684-1.864c-0.01,0.018,0.142-0.386,0.228-0.636
			l0.116,0.575c0,0,0.33,1.592,0.398,1.925H54.305L54.305,11.461z M56.425,7.164h-1.328c-0.412,0-0.72,0.118-0.901,0.553
			l-2.552,6.111h1.805c0,0,0.294-0.822,0.361-1.002c0.197,0,1.95,0.003,2.201,0.003c0.051,0.233,0.209,0.999,0.209,0.999h1.595
			L56.425,7.164L56.425,7.164z"/>
		<path id="Fill-6" fill="#FFFFFF" d="M42.625,7.163l-1.682,4.546l-0.18-0.924c-0.313-1.065-1.289-2.219-2.38-2.797l1.539,5.832
			l1.818-0.001l2.706-6.655H42.625"/>
		<path id="Fill-7" fill="#EC992C" d="M39.382,7.158h-2.771l-0.023,0.138c2.156,0.552,3.582,1.886,4.175,3.488l-0.602-3.064
			C40.057,7.298,39.756,7.173,39.382,7.158"/>
	</g>
</g>
<g id="Payment_x2F_MasterCard">
	<g id="payment-icon-MasterCard">
		<path id="Rectangle_1_" fill="#21205F" d="M31.899,0h30.378c1.291,0,2.337,1.046,2.337,2.337v16.357
			c0,1.291-1.046,2.337-2.337,2.337H31.899c-1.291,0-2.337-1.046-2.337-2.337V2.337C29.563,1.046,30.609,0,31.899,0z"/>
		<path id="Fill-333" fill="#CB2026" d="M49.236,10.685c0,3.778-3.062,6.84-6.84,6.84c-3.778,0-6.84-3.062-6.84-6.84
			c0-3.778,3.063-6.84,6.84-6.84C46.174,3.845,49.236,6.908,49.236,10.685"/>
		<path id="Fill-334" fill="#F8991D" d="M51.579,3.845c-1.768,0-3.378,0.671-4.592,1.771C46.74,5.84,46.51,6.082,46.297,6.34h1.382
			c0.189,0.23,0.363,0.471,0.521,0.724h-2.425c-0.145,0.233-0.277,0.474-0.394,0.724h3.213c0.11,0.234,0.206,0.476,0.29,0.724
			h-3.792c-0.079,0.236-0.145,0.478-0.199,0.724h4.19c0.1,0.467,0.154,0.951,0.154,1.449c0,0.759-0.124,1.49-0.352,2.173h-3.792
			c0.083,0.248,0.18,0.49,0.289,0.725h3.213c-0.117,0.25-0.249,0.492-0.395,0.724h-2.424c0.158,0.252,0.332,0.494,0.522,0.724h1.382
			c-0.212,0.258-0.443,0.5-0.691,0.724c1.214,1.1,2.824,1.77,4.592,1.77c3.778,0,6.84-3.062,6.84-6.84
			C58.42,6.908,55.357,3.845,51.579,3.845"/>
		<path id="Fill-336" fill="#21205F" d="M40.799,11.434c-0.078-0.009-0.112-0.012-0.166-0.012c-0.421,0-0.634,0.144-0.634,0.43
			c0,0.176,0.104,0.287,0.266,0.287C40.568,12.14,40.786,11.852,40.799,11.434L40.799,11.434z M41.339,12.692h-0.616l0.014-0.292
			c-0.188,0.231-0.438,0.341-0.778,0.341c-0.402,0-0.678-0.314-0.678-0.771c0-0.687,0.48-1.088,1.304-1.088
			c0.084,0,0.192,0.008,0.303,0.022c0.023-0.093,0.029-0.133,0.029-0.183c0-0.187-0.129-0.257-0.476-0.257
			c-0.363-0.004-0.663,0.087-0.786,0.127c0.008-0.047,0.103-0.635,0.103-0.635c0.37-0.109,0.614-0.149,0.889-0.149
			c0.638,0,0.976,0.286,0.975,0.827c0.001,0.145-0.023,0.324-0.06,0.559C41.496,11.602,41.358,12.478,41.339,12.692L41.339,12.692z"
			/>
		<polyline id="Fill-337" fill="#21205F" points="38.97,12.692 38.227,12.692 38.653,10.025 37.703,12.692 37.197,12.692 
			37.134,10.04 36.687,12.692 35.992,12.692 36.573,9.222 37.641,9.222 37.705,11.164 38.357,9.222 39.544,9.222 38.97,12.692 		"/>
		<path id="Fill-338" fill="#21205F" d="M52.497,11.434c-0.078-0.009-0.112-0.012-0.165-0.012c-0.421,0-0.634,0.144-0.634,0.43
			c0,0.176,0.103,0.287,0.266,0.287C52.266,12.14,52.484,11.852,52.497,11.434L52.497,11.434z M53.038,12.692h-0.615l0.014-0.292
			c-0.188,0.231-0.438,0.341-0.778,0.341c-0.403,0-0.679-0.314-0.679-0.771c0-0.687,0.48-1.088,1.304-1.088
			c0.084,0,0.192,0.008,0.303,0.022c0.023-0.093,0.029-0.133,0.029-0.183c0-0.187-0.129-0.257-0.476-0.257
			c-0.363-0.004-0.663,0.087-0.786,0.127c0.008-0.047,0.104-0.635,0.104-0.635c0.37-0.109,0.614-0.149,0.888-0.149
			c0.638,0,0.976,0.286,0.975,0.827c0.001,0.145-0.023,0.324-0.06,0.559C53.195,11.602,53.056,12.478,53.038,12.692L53.038,12.692z"
			/>
		<path id="Fill-339" fill="#21205F" d="M44.639,12.649c-0.203,0.064-0.362,0.092-0.534,0.092c-0.38,0-0.587-0.218-0.587-0.62
			c-0.005-0.125,0.055-0.453,0.102-0.752c0.043-0.264,0.322-1.926,0.322-1.926h0.738L44.594,9.87h0.446l-0.101,0.678h-0.447
			c-0.086,0.536-0.208,1.205-0.209,1.294c0,0.145,0.078,0.209,0.254,0.209c0.085,0,0.15-0.009,0.2-0.027L44.639,12.649"/>
		<path id="Fill-340" fill="#21205F" d="M46.902,12.626c-0.254,0.078-0.498,0.115-0.757,0.114c-0.826-0.001-1.257-0.432-1.257-1.259
			c0-0.964,0.548-1.675,1.292-1.675c0.608,0,0.997,0.398,0.997,1.021c0,0.207-0.027,0.409-0.091,0.694h-1.47
			c-0.05,0.409,0.212,0.58,0.642,0.58c0.264,0,0.502-0.054,0.767-0.177L46.902,12.626L46.902,12.626z M46.487,10.953
			c0.004-0.059,0.078-0.504-0.344-0.504c-0.235,0-0.403,0.179-0.471,0.504H46.487L46.487,10.953z"/>
		<path id="Fill-341" fill="#21205F" d="M41.784,10.762c0,0.357,0.173,0.603,0.565,0.788c0.301,0.141,0.347,0.183,0.347,0.311
			c0,0.176-0.133,0.255-0.426,0.255c-0.222,0-0.428-0.035-0.665-0.112c0,0-0.097,0.622-0.102,0.652
			c0.169,0.037,0.319,0.071,0.773,0.083c0.783,0,1.145-0.298,1.145-0.943c0-0.388-0.151-0.615-0.523-0.786
			c-0.311-0.143-0.347-0.175-0.347-0.306c0-0.153,0.124-0.23,0.363-0.23c0.146,0,0.345,0.016,0.534,0.042l0.106-0.654
			C43.361,9.831,43.07,9.807,42.9,9.807C42.069,9.807,41.782,10.241,41.784,10.762"/>
		<path id="Fill-342" fill="#21205F" d="M50.514,9.881c0.206,0,0.399,0.054,0.664,0.187l0.122-0.753
			c-0.109-0.043-0.492-0.294-0.816-0.294c-0.497,0-0.917,0.247-1.213,0.653c-0.431-0.143-0.608,0.146-0.826,0.433l-0.193,0.045
			c0.015-0.095,0.028-0.189,0.024-0.284h-0.682c-0.093,0.874-0.258,1.758-0.387,2.632l-0.034,0.19h0.743
			c0.124-0.806,0.192-1.321,0.233-1.671l0.28-0.155c0.042-0.156,0.173-0.208,0.435-0.202c-0.034,0.184-0.053,0.378-0.053,0.578
			c0,0.923,0.499,1.498,1.298,1.498c0.206,0,0.383-0.027,0.657-0.102l0.13-0.791c-0.246,0.121-0.448,0.178-0.631,0.178
			c-0.432,0-0.693-0.319-0.693-0.845C49.571,10.417,49.959,9.881,50.514,9.881"/>
		<path id="Fill-343" fill="#21205F" d="M56.801,9.222l-0.165,1.002c-0.203-0.267-0.421-0.461-0.709-0.461
			c-0.375,0-0.716,0.284-0.939,0.702c-0.311-0.065-0.632-0.174-0.632-0.174l0,0.003c0.025-0.234,0.035-0.376,0.033-0.425h-0.682
			c-0.093,0.874-0.258,1.758-0.387,2.632l-0.034,0.19h0.743c0.1-0.651,0.177-1.193,0.233-1.621c0.254-0.23,0.381-0.429,0.637-0.416
			c-0.114,0.275-0.18,0.591-0.18,0.916c0,0.705,0.357,1.171,0.897,1.171c0.272,0,0.481-0.094,0.685-0.311l-0.035,0.262h0.703
			l0.566-3.469H56.801L56.801,9.222z M55.872,12.04c-0.253,0-0.381-0.187-0.381-0.556c0-0.555,0.239-0.948,0.576-0.948
			c0.255,0,0.394,0.194,0.394,0.553C56.461,11.648,56.218,12.04,55.872,12.04L55.872,12.04z"/>
		<polyline id="Fill-344" fill="#FFFFFF" points="39.184,12.486 38.441,12.486 38.867,9.819 37.917,12.486 37.411,12.486 
			37.348,9.834 36.901,12.486 36.206,12.486 36.787,9.016 37.854,9.016 37.884,11.164 38.605,9.016 39.758,9.016 39.184,12.486 		
			"/>
		<path id="Fill-345" fill="#FFFFFF" d="M41.012,11.229c-0.078-0.009-0.112-0.012-0.166-0.012c-0.421,0-0.634,0.144-0.634,0.429
			c0,0.175,0.104,0.288,0.266,0.288C40.782,11.934,41,11.646,41.012,11.229L41.012,11.229z M41.552,12.486h-0.615l0.014-0.292
			c-0.188,0.231-0.438,0.341-0.778,0.341c-0.402,0-0.678-0.315-0.678-0.771c0-0.687,0.48-1.087,1.304-1.087
			c0.084,0,0.192,0.008,0.303,0.022c0.023-0.093,0.029-0.133,0.029-0.184c0-0.187-0.129-0.256-0.476-0.256
			c-0.363-0.004-0.663,0.086-0.786,0.126c0.008-0.047,0.103-0.634,0.103-0.634c0.37-0.109,0.614-0.149,0.889-0.149
			c0.638,0,0.975,0.287,0.975,0.827c0.001,0.145-0.023,0.324-0.06,0.559C41.71,11.396,41.571,12.273,41.552,12.486L41.552,12.486z"
			/>
		<path id="Fill-346" fill="#FFFFFF" d="M51.513,9.11l-0.122,0.753c-0.265-0.133-0.457-0.187-0.663-0.187
			c-0.554,0-0.943,0.536-0.943,1.3c0,0.527,0.261,0.845,0.693,0.845c0.183,0,0.385-0.057,0.631-0.178l-0.13,0.791
			c-0.273,0.074-0.45,0.102-0.656,0.102c-0.8,0-1.298-0.575-1.298-1.498c0-1.24,0.688-2.107,1.673-2.107
			C51.021,8.93,51.404,9.067,51.513,9.11"/>
		<path id="Fill-347" fill="#FFFFFF" d="M52.711,11.229c-0.077-0.009-0.112-0.012-0.165-0.012c-0.421,0-0.634,0.144-0.634,0.429
			c0,0.175,0.104,0.288,0.266,0.288C52.48,11.934,52.698,11.646,52.711,11.229L52.711,11.229z M53.251,12.486h-0.615l0.014-0.292
			c-0.188,0.231-0.438,0.341-0.778,0.341c-0.403,0-0.678-0.315-0.678-0.771c0-0.687,0.48-1.087,1.304-1.087
			c0.084,0,0.192,0.008,0.302,0.022c0.023-0.093,0.029-0.133,0.029-0.184c0-0.187-0.129-0.256-0.476-0.256
			c-0.363-0.004-0.663,0.086-0.786,0.126c0.008-0.047,0.103-0.634,0.103-0.634c0.37-0.109,0.614-0.149,0.889-0.149
			c0.638,0,0.976,0.287,0.975,0.827c0.002,0.145-0.023,0.324-0.06,0.559C53.408,11.396,53.27,12.273,53.251,12.486L53.251,12.486z"
			/>
		<path id="Fill-348" fill="#FFFFFF" d="M44.853,12.443c-0.203,0.064-0.362,0.092-0.533,0.092c-0.38,0-0.587-0.218-0.587-0.62
			c-0.005-0.125,0.055-0.453,0.102-0.752c0.043-0.264,0.322-1.926,0.322-1.926h0.738l-0.086,0.427h0.379l-0.101,0.678h-0.38
			c-0.086,0.537-0.208,1.205-0.209,1.294c0,0.146,0.078,0.209,0.254,0.209c0.085,0,0.15-0.008,0.2-0.027L44.853,12.443"/>
		<path id="Fill-349" fill="#FFFFFF" d="M47.116,12.421c-0.254,0.078-0.499,0.114-0.758,0.114c-0.827-0.001-1.257-0.432-1.257-1.259
			c0-0.965,0.548-1.675,1.291-1.675c0.609,0,0.998,0.398,0.998,1.022c0,0.207-0.027,0.409-0.091,0.694h-1.47
			c-0.05,0.409,0.212,0.58,0.642,0.58c0.264,0,0.502-0.055,0.768-0.178L47.116,12.421L47.116,12.421z M46.701,10.747
			c0.004-0.059,0.078-0.504-0.344-0.504c-0.235,0-0.403,0.18-0.472,0.504H46.701L46.701,10.747z"/>
		<path id="Fill-350" fill="#FFFFFF" d="M41.998,10.556c0,0.357,0.173,0.603,0.566,0.788c0.301,0.141,0.347,0.183,0.347,0.311
			c0,0.176-0.133,0.255-0.427,0.255c-0.221,0-0.428-0.034-0.665-0.111c0,0-0.097,0.622-0.102,0.651
			c0.169,0.037,0.319,0.071,0.773,0.084c0.784,0,1.146-0.298,1.146-0.943c0-0.388-0.152-0.615-0.524-0.786
			c-0.311-0.143-0.347-0.175-0.347-0.307c0-0.153,0.123-0.231,0.364-0.231c0.146,0,0.345,0.016,0.533,0.043l0.106-0.654
			c-0.192-0.03-0.484-0.055-0.654-0.055C42.283,9.601,41.995,10.035,41.998,10.556"/>
		<path id="Fill-351" fill="#FFFFFF" d="M57.182,12.486h-0.702l0.035-0.263c-0.204,0.218-0.412,0.312-0.685,0.312
			c-0.54,0-0.897-0.465-0.897-1.171c0-0.939,0.554-1.73,1.208-1.73c0.288,0,0.506,0.118,0.709,0.385l0.165-1.003h0.732
			L57.182,12.486L57.182,12.486z M56.086,11.834c0.346,0,0.589-0.392,0.589-0.951c0-0.359-0.138-0.553-0.393-0.553
			c-0.337,0-0.576,0.393-0.576,0.948C55.705,11.647,55.833,11.834,56.086,11.834L56.086,11.834z"/>
		<path id="Fill-352" fill="#FFFFFF" d="M53.92,9.664c-0.093,0.873-0.258,1.758-0.387,2.632l-0.034,0.19h0.743
			c0.266-1.725,0.33-2.062,0.746-2.02c0.066-0.353,0.19-0.662,0.282-0.818c-0.311-0.065-0.485,0.111-0.712,0.445
			c0.018-0.145,0.051-0.285,0.045-0.428H53.92"/>
		<path id="Fill-353" fill="#FFFFFF" d="M47.807,9.664c-0.093,0.873-0.259,1.758-0.388,2.632l-0.034,0.19h0.743
			c0.266-1.725,0.329-2.062,0.746-2.02c0.067-0.353,0.19-0.662,0.282-0.818c-0.311-0.065-0.485,0.111-0.712,0.445
			c0.018-0.145,0.051-0.285,0.044-0.428H47.807"/>
	</g>
</g>
</svg>
