<svg xmlns="http://www.w3.org/2000/svg" xmlns:xlink="http://www.w3.org/1999/xlink" width="158" height="60" viewBox="0 0 158 60">
    <defs>
        <path id="a" d="M.023 23.46V.115H32.57V23.46z"/>
    </defs>
    <g fill="none" fill-rule="evenodd">
        <g>
            <mask id="b" fill="#fff">
                <use xlink:href="#a"/>
            </mask>
            <path fill="#BE2531" d="M0 23.46h6.815l3.274-16.087h.066l.869 16.087h5.444l7.817-16.087h.066L20.677 23.46h6.814L32.57.115H22.114L15.6 12.67h-.067l-.3-12.555H4.977L0 23.46" mask="url(#b)"/>
        </g>
        <path fill="#BE2531" d="M28.41 23.46h6.218l1.528-2.772h6.467l.333 2.772h5.997L45.87 4.059h-5.996l-11.464 19.4zm13.047-12.744h.056l.666 5.814h-3.803l3.081-5.814zM50.728 23.46h6.108L59.889 9.03h5.497L66.44 4.06h-17.1L48.285 9.03h5.497L50.728 23.46M69.274 23.46h6.107L78.434 9.03h5.497l1.055-4.972h-17.1L66.83 9.03h5.497L69.274 23.46M91.428 8.678h3.303c1.583 0 2.055.923 2.055 1.685 0 1.168-.944 2.174-2.97 2.174h-3.22l.832-3.859zm-9.16 14.782h5.996l1.444-6.766h2.637c1.693 0 2.47.761 2.47 1.766 0 .979-.305 2.174-.305 3.098 0 .87.027 1.412.25 1.902h5.83c-.501-1.141-.278-3.126-.278-4.945 0-1.821-.25-3.478-2.055-3.968v-.054c2.86-.462 4.635-2.527 4.635-5.352 0-4.103-2.803-5.082-6.467-5.082h-10.05l-4.107 19.4zM102.006 23.46h16.6l1.054-4.973h-10.492l.528-2.418h9.548l.972-4.619h-9.52l.526-2.419h10.271l1.027-4.972h-16.378l-4.136 19.4"/>
        <g fill="#BE2531">
            <path d="M139.202 9.928c.11-4.782-3.692-6.33-7.913-6.33-3.997 0-8.326 2.01-8.326 6.385 0 3.233 2.331 4.483 4.745 5.27 2.749.898 4.775 1.088 4.775 2.5 0 1.277-1.47 1.875-2.665 1.875-.999 0-1.721-.054-2.247-.488-.5-.49-.75-1.142-.75-2.201h-5.913c-.25 4.945 3.859 6.982 8.411 6.982 4.304 0 8.938-2.2 8.938-6.873 0-2.31-1.165-4.158-4.608-5.353-1.942-.68-4.912-.762-4.912-2.23 0-1.275 1.33-1.575 2.359-1.575.694 0 1.331.11 1.776.435.445.326.72.816.694 1.603h5.636M157.443 9.928c.11-4.782-3.692-6.33-7.913-6.33-3.996 0-8.326 2.01-8.326 6.385 0 3.233 2.331 4.483 4.747 5.27 2.75.898 4.773 1.088 4.773 2.5 0 1.277-1.47 1.875-2.664 1.875-.999 0-1.72-.054-2.249-.488-.5-.49-.75-1.142-.75-2.201h-5.912c-.248 4.945 3.859 6.982 8.412 6.982 4.303 0 8.938-2.2 8.938-6.873 0-2.31-1.165-4.158-4.609-5.353-1.941-.68-4.912-.762-4.912-2.23 0-1.275 1.332-1.575 2.36-1.575.693 0 1.332.11 1.777.435.443.326.721.816.694 1.603h5.634"/>
        </g>
        <path fill="#BE2531" d="M33.916 50.224h7.349l1.903-8.893h9.386l1.17-5.559h-9.386l.633-2.91H56.03l1.268-5.982H38.892l-4.976 23.344M54.292 50.224h7.347l4.946-23.344h-7.35l-4.943 23.344M76.096 32.438h3.974c1.903 0 2.47 1.112 2.47 2.027 0 1.406-1.135 2.616-3.572 2.616h-3.874l1.002-4.643zM65.072 50.224h7.213l1.74-8.141h3.171c2.04 0 2.976.916 2.976 2.126 0 1.176-.37 2.615-.37 3.727 0 1.046.035 1.7.3 2.288h7.016c-.6-1.373-.336-3.76-.336-5.95 0-2.191-.299-4.186-2.47-4.773v-.066c3.44-.557 5.578-3.041 5.578-6.441 0-4.937-3.373-6.114-7.783-6.114H70.015l-4.943 23.344zM89.49 50.224h6.815l3.272-16.086h.068l.867 16.086h5.446l7.815-16.086h.067l-3.674 16.086h6.815l5.077-23.344h-10.455l-6.513 12.555h-.069l-.298-12.555H94.465L89.49 50.224"/>
        <path fill="#FDDB74" d="M33.084 54.595s20.8-2.323 46.627-2.768c25.972-.447 36.718 1.627 36.718 1.627l-.556 2.828s-10.57-2.013-36.11-1.574C54.085 55.151 30.419 60 30.419 60l2.666-5.405"/>
        <path fill="#1A1918" d="M124.344 28.896h.42c.356 0 .682-.019.682-.418 0-.336-.298-.388-.57-.388h-.532v.806zm-.405-1.125h1.003c.618 0 .905.237.905.724 0 .458-.296.65-.68.691l.74 1.119h-.432l-.705-1.09h-.426v1.09h-.405V27.77zm.865 3.119c1.026 0 1.82-.8 1.82-1.861 0-1.038-.794-1.838-1.82-1.838-1.034 0-1.827.8-1.827 1.838 0 1.061.793 1.86 1.827 1.86zm0-4.018c1.21 0 2.223.934 2.223 2.157 0 1.247-1.013 2.18-2.223 2.18-1.213 0-2.232-.933-2.232-2.18 0-1.223 1.02-2.157 2.232-2.157z"/>
    </g>
</svg>
