<?xml version="1.0" encoding="utf-8"?>
<!-- Generator: Adobe Illustrator 17.0.0, SVG Export Plug-In . SVG Version: 6.00 Build 0)  -->
<!DOCTYPE svg PUBLIC "-//W3C//DTD SVG 1.1//EN" "http://www.w3.org/Graphics/SVG/1.1/DTD/svg11.dtd">
<svg version="1.1" id="Layer_1" xmlns="http://www.w3.org/2000/svg" xmlns:xlink="http://www.w3.org/1999/xlink" x="0px" y="0px"
	 width="22px" height="22px" viewBox="0 0 22 22" enable-background="new 0 0 22 22" xml:space="preserve">
<g>
	<path fill-rule="evenodd" clip-rule="evenodd" fill="#F1F1F1" d="M11,21.5C5.21,21.5,0.5,16.79,0.5,11S5.21,0.5,11,0.5
		S21.5,5.21,21.5,11S16.79,21.5,11,21.5z"/>
	<path fill="#E41A70" d="M11,1c5.514,0,10,4.486,10,10s-4.486,10-10,10S1,16.514,1,11S5.486,1,11,1 M11,0C4.925,0,0,4.925,0,11
		s4.925,11,11,11s11-4.925,11-11S17.075,0,11,0L11,0z"/>
</g>
<path fill-rule="evenodd" clip-rule="evenodd" fill="#E41A70" d="M11,5c3.314,0,6,2.686,6,6s-2.686,6-6,6s-6-2.686-6-6S7.686,5,11,5
	z"/>
</svg>
