<svg xmlns="http://www.w3.org/2000/svg" width="60" height="36" viewBox="0 0 60 36">
    <g fill="none" fill-rule="evenodd">
        <rect width="60" height="36" fill="#FFF" rx="4"/>
        <path fill="#303338" d="M40.59 20.257l1.982-3.393 1.983 3.392a4.372 4.372 0 0 1-3.965 0zm1.984-6.238l-5.86 10.029h1.662l1.489-2.549.06.03a5.842 5.842 0 0 0 2.642.636c.917 0 1.834-.22 2.65-.634l.065-.033 1.49 2.55h1.662l-5.86-10.029zM33.173 15.384h1.757c1.283 0 1.99.622 1.99 1.752 0 1.139-.707 1.766-1.99 1.766h-1.757v-3.518zm5.407 1.752c0-1.98-1.37-3.117-3.758-3.117h-3.263v10.029h1.614v-3.781h1.649c2.388 0 3.758-1.141 3.758-3.131zM9.242 24.257c-.733 0-1.352-.091-1.86-.272-.506-.18-.922-.42-1.245-.72a3.204 3.204 0 0 1-.75-1.022 4.191 4.191 0 0 1-.35-1.18H6.75c.113.668.37 1.148.771 1.44.401.293.983.439 1.743.439.76 0 1.33-.136 1.711-.407.38-.272.57-.65.57-1.138 0-.278-.063-.508-.19-.689a1.536 1.536 0 0 0-.496-.448 2.838 2.838 0 0 0-.708-.282 14.41 14.41 0 0 0-.824-.188l-1.31-.271a6.426 6.426 0 0 1-.97-.292 3.122 3.122 0 0 1-.878-.512 2.506 2.506 0 0 1-.633-.793c-.162-.313-.243-.692-.243-1.137 0-.863.32-1.572.96-2.13.642-.555 1.589-.834 2.842-.834.662 0 1.236.084 1.722.25.485.168.89.39 1.214.669.324.278.57.608.74.99.168.384.267.784.295 1.201h-1.71c-.043-.556-.258-.995-.645-1.315-.387-.32-.947-.48-1.68-.48-.675 0-1.2.14-1.573.418-.373.278-.56.66-.56 1.147 0 .279.056.505.17.679.112.174.27.32.474.438.204.118.44.216.708.292.267.077.556.143.866.198l1.31.272c.324.07.647.167.971.292.324.125.616.296.877.511.26.216.472.48.634.793.162.313.243.693.243 1.138 0 .863-.328 1.569-.983 2.118-.654.55-1.63.825-2.925.825M18.728 15.199c-.887 0-1.613.276-2.176.83-.563.552-.901 1.284-1.014 2.196h6.232c-.057-.995-.37-1.748-.94-2.26-.57-.51-1.271-.766-2.102-.766zm.063 9.058c-.76 0-1.443-.133-2.049-.397a4.75 4.75 0 0 1-1.563-1.085 4.665 4.665 0 0 1-1.003-1.65 6.071 6.071 0 0 1-.349-2.086c0-.738.113-1.422.338-2.056a4.86 4.86 0 0 1 .983-1.66c.429-.472.947-.84 1.552-1.105.606-.264 1.289-.397 2.05-.397.717 0 1.365.122 1.943.365a4.44 4.44 0 0 1 1.489 1.013c.415.431.736.953.961 1.565.225.612.338 1.28.338 2.004v.668h-7.985c.07 1.023.39 1.853.961 2.489.57.636 1.348.954 2.334.954.704 0 1.32-.166 1.849-.498.528-.332.869-.781 1.024-1.348h1.669c-.099.46-.278.886-.539 1.277-.26.39-.584.729-.971 1.015a4.717 4.717 0 0 1-1.352.68 5.399 5.399 0 0 1-1.68.252zM25.577 15.407H23.61l-.805-1.377h2.773V11.42h1.605v2.609h2.866v1.377h-2.866v5.719c0 .626.117 1.04.349 1.242.232.202.616.302 1.151.302h1.366v1.378h-1.683c-.943 0-1.644-.216-2.102-.647-.458-.431-.686-1.12-.686-2.066v-5.928M50.284 18.926l-2.86-4.896H45.75l3.717 6.361v3.657h1.635v-3.656l3.718-6.362h-1.675l-2.86 4.896"/>
        <path fill="#F3BE24" d="M44.555 20.256l-1.983-3.392-1.982 3.393a4.372 4.372 0 0 0 3.965 0"/>
    </g>
</svg>
