<svg xmlns="http://www.w3.org/2000/svg" width="25" height="25" viewBox="0 0 25 25">
    <g fill="none" fill-rule="nonzero">
        <circle cx="12.5" cy="12.5" r="12.5" fill="#F0F0F0"/>
        <g fill="#D80027">
            <path d="M11.957 12.5H25c0-1.128-.15-2.221-.43-3.26H11.956v3.26zM11.957 5.978h11.208a12.566 12.566 0 0 0-2.884-3.26h-8.324v3.26zM12.5 25c2.942 0 5.646-1.017 7.781-2.717H4.72A12.446 12.446 0 0 0 12.5 25zM1.835 19.022h21.33a12.425 12.425 0 0 0 1.404-3.261H.431c.313 1.163.79 2.258 1.404 3.26z"/>
        </g>
        <path fill="#0052B4" d="M5.79 1.952h1.14l-1.06.77.405 1.245-1.06-.77-1.06.77.35-1.076a12.569 12.569 0 0 0-2.424 2.702h.365l-.675.49a12.48 12.48 0 0 0-.302.534l.322.992-.601-.437c-.15.317-.286.64-.409.97l.355 1.093h1.31l-1.06.77.405 1.245-1.06-.77-.634.461A12.62 12.62 0 0 0 0 12.5h12.5V0c-2.47 0-4.771.716-6.71 1.952zm.485 9.298l-1.06-.77-1.06.77.405-1.246-1.06-.77h1.31l.405-1.245.405 1.246h1.31l-1.06.77.405 1.245zM5.87 6.363l.405 1.246-1.06-.77-1.06.77.405-1.246-1.06-.77h1.31l.405-1.245.405 1.245h1.31l-1.06.77zm4.888 4.887l-1.06-.77-1.059.77.405-1.246-1.06-.77h1.31l.405-1.245.404 1.246h1.31l-1.06.77.405 1.245zm-.405-4.887l.405 1.246-1.06-.77-1.059.77.405-1.246-1.06-.77h1.31l.405-1.245.404 1.245h1.31l-1.06.77zm0-3.641l.405 1.245-1.06-.77-1.059.77.405-1.245-1.06-.77h1.31L9.699.706l.404 1.246h1.31l-1.06.77z"/>
    </g>
</svg>
