<?xml version="1.0" encoding="UTF-8"?>
<svg width="17px" height="14px" viewBox="0 0 17 14" version="1.1" xmlns="http://www.w3.org/2000/svg" xmlns:xlink="http://www.w3.org/1999/xlink">
    <!-- Generator: Sketch 48.2 (47327) - http://www.bohemiancoding.com/sketch -->
    <title>Fill 1</title>
    <desc>Created with Sketch.</desc>
    <defs></defs>
    <g id="Componentes/Large/Header" stroke="none" stroke-width="1" fill="none" fill-rule="evenodd" transform="translate(-864.000000, -15.000000)">
        <g id="Header" fill="#FFFFFF">
            <g id="Group-40">
                <g id="Group-10" transform="translate(620.000000, 11.000000)">
                    <g id="Group-49" transform="translate(51.000000, 0.000000)">
                        <g id="Group-2">
                            <path d="M208.229167,6.1 L206.104167,6.1 C205.908312,6.1 205.75,6.25645 205.75,6.45 C205.75,6.64355 205.908312,6.8 206.104167,6.8 L208.229167,6.8 C208.814958,6.8 209.291667,7.2711 209.291667,7.85 L209.291667,14.15 C209.291667,14.7289 208.814958,15.2 208.229167,15.2 L206.8125,15.2 C206.616646,15.2 206.458333,15.35645 206.458333,15.55 L206.458333,16.95 L204.191667,15.27 C204.130396,15.2245 204.056021,15.2 203.979167,15.2 L199.729167,15.2 C199.508875,15.2 199.295312,15.1314 199.112562,15.0012 C198.953188,14.8878 198.732188,14.9242 198.617792,15.081 C198.50375,15.23815 198.540229,15.45655 198.698896,15.56995 C199.003125,15.7859 199.359417,15.9 199.729167,15.9 L203.861229,15.9 L206.6,17.93 C206.662333,17.97655 206.737063,18 206.8125,18 C206.866333,18 206.920875,17.98775 206.970812,17.96325 C207.090875,17.90375 207.166667,17.78265 207.166667,17.65 L207.166667,15.9 L208.229167,15.9 C209.205604,15.9 210,15.11495 210,14.15 L210,7.85 C210,6.88505 209.205604,6.1 208.229167,6.1 Z M198.808333,13.17 L196.541667,14.85 L196.541667,13.45 C196.541667,13.25645 196.383354,13.1 196.1875,13.1 L194.770833,13.1 C194.185042,13.1 193.708333,12.6289 193.708333,12.05 L193.708333,5.75 C193.708333,5.1711 194.185042,4.7 194.770833,4.7 L203.270833,4.7 C203.856625,4.7 204.333333,5.1711 204.333333,5.75 L204.333333,12.05 C204.333333,12.6289 203.856625,13.1 203.270833,13.1 L199.020833,13.1 C198.943979,13.1 198.869604,13.1245 198.808333,13.17 Z M203.270833,13.8 C204.247271,13.8 205.041667,13.01495 205.041667,12.05 L205.041667,5.75 C205.041667,4.78505 204.247271,4 203.270833,4 L194.770833,4 C193.794396,4 193,4.78505 193,5.75 L193,12.05 C193,13.01495 193.794396,13.8 194.770833,13.8 L195.833333,13.8 L195.833333,15.55 C195.833333,15.68265 195.909125,15.80375 196.029188,15.86325 C196.079125,15.88775 196.133667,15.9 196.1875,15.9 C196.262583,15.9 196.337667,15.87655 196.4,15.83 L199.138771,13.8 L203.270833,13.8 Z" id="Fill-1"></path>
                        </g>
                    </g>
                </g>
            </g>
        </g>
    </g>
</svg>