<?xml version="1.0" encoding="utf-8"?>
<!-- Generator: Adobe Illustrator 17.0.0, SVG Export Plug-In . SVG Version: 6.00 Build 0)  -->
<!DOCTYPE svg PUBLIC "-//W3C//DTD SVG 1.1//EN" "http://www.w3.org/Graphics/SVG/1.1/DTD/svg11.dtd">
<svg version="1.1" id="Layer_1" xmlns="http://www.w3.org/2000/svg" xmlns:xlink="http://www.w3.org/1999/xlink" x="0px" y="0px"
	 width="158.5px" height="223px" viewBox="-40.5 0 158.5 223" enable-background="new -40.5 0 158.5 223" xml:space="preserve">
<path fill="#C9C9CA" d="M-22,136.257v19.783c0,3.992,2.374,7.601,6.04,9.182L118,223l-0.193-153.699l-133.772,57.775
	c-3.663,1.582-6.035,5.19-6.035,9.18V136.257z"/>
<path fill="#F1F1F2" d="M-15.526,146.507L118,201.91l-0.193-136.622l-133.476,57.265c-6.598,2.83-9.652,10.474-6.822,17.072
	C-21.155,142.739-18.656,145.208-15.526,146.507z"/>
<path fill="#C9C9CA" d="M0.443,49.617v78.368c0,3.24,1.955,6.16,4.95,7.395L118,181.826L117.642,0L5.627,42.13
	C2.509,43.303,0.443,46.285,0.443,49.617z"/>
<path fill="#F1F1F2" d="M6.252,57.624L118,96.438V0L6.13,40.664c-4.671,1.698-7.082,6.862-5.383,11.534
	C1.672,54.742,3.694,56.735,6.252,57.624z"/>
</svg>
