<?xml version="1.0" encoding="utf-8"?>
<!DOCTYPE svg PUBLIC "-//W3C//DTD SVG 1.1//EN" "http://www.w3.org/Graphics/SVG/1.1/DTD/svg11.dtd">
<svg version="1.1" id="Layer_1" xmlns="http://www.w3.org/2000/svg" xmlns:xlink="http://www.w3.org/1999/xlink" x="0px" y="0px"
     width="302.1px" height="219.8px" viewBox="1 41.2 302.1 219.8" style="enable-background:new 1 41.2 302.1 219.8;"
     xml:space="preserve">
<g class="mattress">
    <g>
        <polyline class="st0" points="151.7,137.5 165.1,137.5 195.7,214 47.6,214 78.3,137.5 91.7,137.5       "/>
        <path class="st0" d="M195.7,244.7c0,5.3-4.9,10.2-10.2,10.2H57.9c-5.3,0-10.2-4.9-10.2-10.2v-30.6h148V244.7z"/>
        <line class="st0" x1="68.1" y1="163" x2="175.3" y2="163"/>
        <polygon class="st0" points="157.4,152.8 85.9,152.8 93.6,132.3 149.7,132.3        "/>
        <path class="st0" d="M78.3,137.5v-15.4c0-5.3,4.9-10.2,10.2-10.2h66.4c5.3,0,10.2,4.9,10.2,10.2v15.3"/>
        <line class="st0" x1="68.1" y1="254.9" x2="68.1" y2="260"/>
        <line class="st0" x1="175.3" y1="254.9" x2="175.3" y2="260"/>
    </g>
</g>
<g class="time">
    <path class="st0 clock-face" d="M71.8,111.9c0,19.3-15.6,34.9-34.9,34.9c-19.2,0-34.8-15.6-34.8-34.9S17.7,77,37,77
        C56.2,77,71.8,92.7,71.8,111.9z"/>
    <line class="st0 hour-hand" x1="35.7" y1="95.2" x2="35.7" y2="111.9"/>
    <line class="st0 minute-hand" x1="35.7" y1="111.9" x2="53.9" y2="128.3"/>
</g>
<g class="nature">
    <g class="sun">
        <line class="st0" x1="238.4" y1="104" x2="238.4" y2="108.1"/>
        <line class="st0" x1="201.5" y1="112.3" x2="205.6" y2="116.3"/>
        <line class="st0" x1="275.4" y1="114.3" x2="271.3" y2="118.4"/>
        <line class="st0" x1="193.3" y1="149.2" x2="197.4" y2="149.2"/>
        <path class="st0" d="M264.2,128.7c-6-7.6-15.3-12.4-25.8-12.4c-18.2,0-32.8,14.7-32.8,32.8
            c0,5.9,1.6,11.4,4.3,16.3"/>
    </g>
    <g class="moon">
        <path class="st0" d="M246.7,166.2c2.6-0.6,5.3-1.5,7.7-2.6c-12.6-5.9-21.5-18.7-21.5-33.6s8.8-27.7,21.5-33.6
            c-4.7-2.2-10-3.5-15.6-3.5c-16.4,0-30.3,10.6-35.2,25.4"/>
    </g>
    <g class="cloud">
        <path class="st0" d="M277.4,125.9c5-11.4-4.6-20.9-17.2-19.3c-4.3-11.1-13-21.4-25.7-21.4
            c-15.6,0-28.7,10.5-30,25.7c-13.7,1.3-25.7,13.8-25.7,27.9c0,14.9,12.9,27.9,27.9,27.9h57.7c12,0,21.6-9.5,21.6-21.5
            C286,137.8,283.1,129.8,277.4,125.9z"/>
    </g>
</g>
</svg>