<svg xmlns="http://www.w3.org/2000/svg" width="411" height="662" viewBox="0 0 411 662">
    <g fill="#919191" fill-rule="evenodd" opacity=".5">
        <path d="M191.788 30.027l2.214-7.58c.14-.478.51-.852.995-1.014l7.735-2.543-6.798-4.372a1.49 1.49 0 0 1-.692-1.227l-.116-7.876-6.413 4.883a1.601 1.601 0 0 1-1.424.255l-7.813-2.327 2.837 7.391c.177.462.106.977-.19 1.384l-4.708 6.436 8.165-.315.059-.002c.487 0 .953.221 1.25.605l4.899 6.302zm4.845-29.17c.228 0 .457.048.67.147.537.245.879.762.89 1.332l.15 10.126 8.736 5.621c.495.317.76.877.68 1.44a1.5 1.5 0 0 1-1.04 1.226l-9.946 3.265-2.841 9.748c-.071.241-.2.453-.37.627a1.605 1.605 0 0 1-1.133.468c-.481 0-.942-.22-1.244-.602l-6.293-8.107-10.5.406c-.023 0-.043.003-.063.003-.567 0-1.095-.3-1.365-.783a1.45 1.45 0 0 1 .094-1.58l6.053-8.277-3.645-9.503c-.362-.944.535-2.007 1.526-2.007.131 0 .262.017.391.056l10.041 2.992 8.248-6.274a1.58 1.58 0 0 1 .961-.324zM19.484 408.097l2.214-7.583c.14-.476.51-.85.995-1.012l7.734-2.543-6.798-4.373a1.483 1.483 0 0 1-.692-1.227l-.117-7.874-6.413 4.881a1.603 1.603 0 0 1-1.422.256l-7.814-2.327 2.836 7.392a1.45 1.45 0 0 1-.188 1.382l-4.708 6.437 8.164-.315c.02 0 .04-.003.058-.003.489 0 .955.223 1.252.605l4.899 6.304zm4.845-29.171c.228 0 .457.049.67.149.535.242.878.76.89 1.331l.148 10.124 8.737 5.622c.494.316.758.876.682 1.44a1.503 1.503 0 0 1-1.043 1.227l-9.944 3.264-2.843 9.748a1.48 1.48 0 0 1-.37.625 1.574 1.574 0 0 1-.845.442 1.588 1.588 0 0 1-1.53-.574l-6.295-8.106-10.5.405c-.021 0-.041.003-.061.003a1.568 1.568 0 0 1-1.367-.784 1.452 1.452 0 0 1 .095-1.58l6.052-8.276-3.644-9.503c-.361-.943.534-2.007 1.527-2.007.13 0 .262.018.39.057l10.042 2.991 8.248-6.274c.278-.212.616-.324.96-.324zM236.243 556.299l.167-7.885c.011-.495.27-.952.694-1.234l6.775-4.445-7.663-2.468a1.489 1.489 0 0 1-.982-1.006l-2.148-7.568-4.899 6.361a1.587 1.587 0 0 1-1.302.613l-8.108-.233 4.636 6.4c.29.4.355.915.176 1.384l-2.858 7.421 7.762-2.403.054-.018a1.57 1.57 0 0 1 1.36.261l6.336 4.82zm-2.887-29.393c.219-.059.453-.072.682-.03a1.496 1.496 0 0 1 1.199 1.055l2.76 9.732 9.849 3.175c.557.178.955.651 1.027 1.215a1.498 1.498 0 0 1-.684 1.45l-8.711 5.71-.212 10.14c-.005.25-.073.486-.191.697a1.583 1.583 0 0 1-.7.645 1.574 1.574 0 0 1-1.619-.162l-8.143-6.2-9.984 3.093-.056.019a1.558 1.558 0 0 1-1.518-.404 1.456 1.456 0 0 1-.317-1.549l3.676-9.543-5.96-8.233c-.59-.815-.003-2.073.95-2.328.125-.034.255-.051.39-.046l10.42.302 6.303-8.178c.212-.278.51-.472.84-.56zM330.4 609.346l-6.077 1.368a1.21 1.21 0 0 1-1.081-.301l-4.72-4.377-.409 6.373a1.17 1.17 0 0 1-.581.947l-5.388 3.093 5.827 2.568a1.267 1.267 0 0 1 .721.887l1.39 6.291 4.01-4.788a1.153 1.153 0 0 1 1.027-.398l6.244.795-3.346-5.524-.024-.04a1.249 1.249 0 0 1-.062-1.096l2.469-5.798zm-21.977 7.803a1.255 1.255 0 0 1-.156-.52 1.18 1.18 0 0 1 .578-1.123l6.927-3.976.528-8.191c.03-.463.315-.86.733-1.022.42-.165.903-.069 1.244.251l6.064 5.63 7.814-1.762c.193-.043.388-.036.574.016a1.262 1.262 0 0 1 .756.604c.185.332.21.736.063 1.091l-3.18 7.452 4.305 7.105.025.041c.218.394.214.872-.016 1.245-.24.389-.676.597-1.126.54l-8.028-1.023-5.159 6.154c-.513.611-1.589.398-1.97-.288a1.067 1.067 0 0 1-.11-.29l-1.786-8.09-7.488-3.303a1.254 1.254 0 0 1-.592-.54zM156.322 582.18l-.047-.254-.101-.239c-1.095-2.535-3.792-3.596-5.728-4.175a43.763 43.763 0 0 0-2.393-.62c-.581-.137-1.126-.265-1.596-.404l-7.06-2.113c-2.821-.843-5.932.775-6.794 3.534-.877 2.808.742 5.789 3.612 6.648l2.474.74c-.775.637-1.662 1.384-2.677 2.26-.597.513-1.055.913-1.262 1.064-.35.262-.82.563-1.341.895-2.978 1.917-7.959 5.12-6.067 9.544.986 2.307 3.586 3.319 5.452 3.879.96.285 1.927.508 2.78.7.624.143 1.197.271 1.652.41l6.664 1.991c2.868.86 5.916-.725 6.792-3.529.878-2.807-.744-5.79-3.614-6.648l-2.893-.865 3.363-2.47c.408-.3.955-.645 1.567-1.036 3.188-2.035 8.007-5.106 7.217-9.312m-2.638.803c.628 3.334-5.69 6.434-7.986 8.108-2.425 1.77-4.85 3.542-7.275 5.314l7.557 2.246c1.624.482 2.536 2.153 2.04 3.733-.487 1.55-2.243 2.453-3.835 1.979-2.256-.673-4.514-1.342-6.771-2.015-1.12-.332-2.867-.633-4.502-1.12-1.792-.533-3.448-1.288-3.994-2.552-1.39-3.231 4.6-6.135 6.745-7.714.98-.722 7.153-6.382 8.221-6.063-.312-.094-7.496-2.229-7.496-2.229-1.624-.482-2.536-2.156-2.04-3.733.485-1.55 2.242-2.457 3.835-1.983 2.394.709 4.785 1.42 7.176 2.132 1.102.327 2.607.606 4.05 1.034 1.864.554 3.624 1.36 4.275 2.863m-25.05-19.018c2.15-2.478 2.055-4.559 1.597-5.87-.953-2.73-4.25-3.995-6.65-4.71-1.314-.393-2.635-.694-3.801-.958-.806-.183-1.517-.341-2.048-.5l-8.465-2.526c-2.97-.884-6.242.814-7.15 3.71-.923 2.946.782 6.074 3.8 6.975l6.405 1.91-1.13.833-4.9 3.618c-.398.295-1.077.73-1.865 1.234-4.483 2.869-11.26 7.204-9.329 12.003 1.058 2.628 4.268 3.855 6.59 4.547 1.333.397 2.682.703 3.87.971.844.19 1.638.37 2.171.53l8.257 2.462c2.967.883 6.242-.814 7.149-3.71.922-2.946-.782-6.074-3.803-6.976l-6.45-1.924 3.369-2.463 3.735-2.738c.383-.28 1.019-.679 1.755-1.14 2.14-1.339 5.066-3.17 6.894-5.278m-2.088-1.406c-2.171 2.5-6.518 4.775-8.119 5.943a11003.03 11003.03 0 0 1-7.345 5.373c-.368.268-2.922 2.6-3.372 2.465l10.81 3.219c1.642.488 2.697 2.239 2.16 3.958-.523 1.657-2.421 2.593-4.064 2.105-2.706-.807-5.412-1.612-8.119-2.418-1.368-.409-3.74-.817-5.94-1.47-2.276-.68-4.367-1.622-4.96-3.096-1.47-3.641 7.78-8.499 10.228-10.301 3.213-2.368 6.423-4.736 9.637-7.103l-10.746-3.2c-1.644-.489-2.698-2.244-2.16-3.957.52-1.658 2.42-2.593 4.064-2.104l8.325 2.48c1.287.383 3.595.788 5.751 1.429 2.315.688 4.455 1.652 4.984 3.158.407 1.164-.131 2.365-1.134 3.52m-32.893 3.75c1.485-1.579 2.149-3.246 1.972-4.953-.398-3.862-5.208-5.751-8.79-6.838-2.011-.61-4.08-1.085-5.745-1.465-1.082-.248-2.016-.462-2.575-.63l-12.802-3.885c-3.142-.953-6.354.74-7.312 3.853-.956 3.098.779 6.378 3.868 7.317l14.722 4.462c-.127.11-.227.198-.29.246l-9.37 6.96-3.1 2.301-7.34 5.453c-.483.359-1.184.808-1.927 1.289-3.01 1.938-6.755 4.35-7.432 7.52-1.167 5.488 6.146 7.706 8.549 8.434 1.81.55 3.626.967 5.084 1.303.91.209 1.696.39 2.153.527l13.944 4.23c3.176.964 6.417-.722 7.376-3.839.955-3.093-.809-6.382-3.932-7.33l-14.677-4.45 11.67-8.63.532-.392 9.797-7.244c.378-.28.846-.586 1.35-.916 1.343-.886 3.02-1.989 4.275-3.323m-.695-4.75c.114 1.08-.453 2.079-1.32 2.984-1.496 1.563-3.886 2.854-5.239 3.835-3.227 2.347-6.453 4.69-9.68 7.035l-15.575 11.317-.267.192 19.016 5.668c1.833.544 2.86 2.424 2.3 4.208-.561 1.787-2.47 2.728-4.305 2.182-4.592-1.37-9.187-2.737-13.781-4.108-1.315-.391-4.283-.923-7.15-1.777-3.782-1.127-7.386-2.814-6.808-5.479.601-2.785 6.025-5.484 8.34-7.174l10.317-7.528c3.091-2.257 6.186-4.513 9.277-6.771.442-.32 3.522-3.128 4.063-2.966l-19.076-5.684a3.337 3.337 0 0 1-2.236-4.193c.559-1.784 2.408-2.743 4.243-2.197l12.652 3.77c1.544.46 4.993 1.074 8.22 2.035 3.524 1.052 6.783 2.516 7.01 4.652M338.603 75a33.024 33.024 0 0 0 11.238-1.412 32.993 32.993 0 0 0 7.344-3.264 32.408 32.408 0 0 0 4.332-3.104 31.375 31.375 0 0 0 3.713-3.75 30.505 30.505 0 0 0 2.992-4.273 29.55 29.55 0 0 0 2.184-4.66 27.859 27.859 0 0 0 1.308-4.91 27.033 27.033 0 0 0-.17-9.977 26.982 26.982 0 0 0-1.457-4.765 26.952 26.952 0 0 0-2.32-4.42 27.25 27.25 0 0 0-3.117-3.944 27.99 27.99 0 0 0-3.83-3.34 29.127 29.127 0 0 0-4.417-2.643 31.263 31.263 0 0 0-4.872-1.873 31.626 31.626 0 0 0-10.501-1.181 32.995 32.995 0 0 0-7.916 1.402 33.026 33.026 0 0 0-10.106 5.116A30.798 30.798 0 0 1 329.83 24c1.669.187 3.322.518 4.914.982a28.228 28.228 0 0 1 8.822 4.283 26.775 26.775 0 0 1 3.646 3.18 26.234 26.234 0 0 1 2.971 3.759 25.614 25.614 0 0 1 2.211 4.213 26.014 26.014 0 0 1 1.388 4.541c.32 1.555.497 3.143.523 4.727a26.16 26.16 0 0 1-.361 4.778 26.667 26.667 0 0 1-1.245 4.676 28.104 28.104 0 0 1-2.075 4.43 29.145 29.145 0 0 1-2.844 4.06 29.892 29.892 0 0 1-7.632 6.501c-.502.303-1.02.595-1.545.87m12.143.18a35.748 35.748 0 0 1-8.483 1.505c-1.91.1-3.833.045-5.718-.17-.46-.054-.914-.155-1.367-.263-.3-.068-.523-.117-.748-.157l-4.123-.743 4.173-1.513.549-.16a28.776 28.776 0 0 0 4.18-2.065 27.75 27.75 0 0 0 3.76-2.702c1.174-1 2.261-2.098 3.227-3.258a26.346 26.346 0 0 0 2.596-3.722 25.394 25.394 0 0 0 1.899-4.056 24.492 24.492 0 0 0 1.131-4.274 23.562 23.562 0 0 0-.152-8.681 23.414 23.414 0 0 0-1.267-4.148 23.692 23.692 0 0 0-2.02-3.85 23.93 23.93 0 0 0-6.037-6.341 25.83 25.83 0 0 0-3.843-2.304 27.095 27.095 0 0 0-4.233-1.631 27.528 27.528 0 0 0-4.497-.9 28.432 28.432 0 0 0-4.63-.136 29.057 29.057 0 0 0-4.619.626l-.565.183-4.284 1.073 3.001-2.92c.185-.18.357-.365.53-.554.319-.34.64-.677.991-.98a35.084 35.084 0 0 1 12.518-6.836c.921-.282 1.852-.525 2.789-.73a35.274 35.274 0 0 1 5.696-.772c1.915-.1 3.836-.045 5.714.169 1.89.215 3.76.59 5.561 1.114 1.801.521 3.56 1.198 5.232 2.014a31.693 31.693 0 0 1 4.75 2.848 30.405 30.405 0 0 1 4.128 3.607 29.185 29.185 0 0 1 3.362 4.262 28.927 28.927 0 0 1 4.67 15.276c.034 1.81-.104 3.63-.404 5.41a30.602 30.602 0 0 1-1.405 5.3 31.92 31.92 0 0 1-2.345 5.018 32.798 32.798 0 0 1-3.211 4.597 33.68 33.68 0 0 1-3.988 4.03 34.775 34.775 0 0 1-4.643 3.338 35.693 35.693 0 0 1-7.875 3.496M410.03 252.66l.377-1.667c2.838-9.087-2.437-18.977-11.762-22.051l-11.697-3.853c-.402-.131-.805-.25-1.206-.353-9.005-2.3-18.168 2.65-20.858 11.258l-.462 1.494-3.234-.916.376-1.67c3.223-10.31 14.182-16.236 24.95-13.484.485.122.965.263 1.447.421l11.702 3.854c5.392 1.776 9.828 5.498 12.488 10.49 2.662 4.99 3.221 10.636 1.577 15.9l-.51 1.626-3.187-1.049zm67.724 22.275l.376-1.667c2.836-9.084-2.44-18.981-11.762-22.053l-11.702-3.848a17.035 17.035 0 0 0-1.21-.355c-9.003-2.3-18.16 2.648-20.85 11.26l-.465 1.484-3.23-.907.374-1.672c3.223-10.314 14.18-16.237 24.951-13.486a21.8 21.8 0 0 1 1.446.42l11.7 3.856a21.832 21.832 0 0 1 12.496 10.487c2.658 4.997 3.216 10.643 1.574 15.903l-.511 1.625-3.187-1.047zm14.153 3.613l13.98-43.625-7.587-2.268-3.51 11.308-18.604-9.642a258.824 258.824 0 0 0-58.865-22.43 261.427 261.427 0 0 0-28.61-5.374l-20.682-2.705 3.573-11.573-7.583-2.265-13.891 43.362-3.197-.87L361.827 186l13.895 4.268-3.409 10.972 16.77 2.028a264.417 264.417 0 0 1 29.001 5.447 262.44 262.44 0 0 1 59.697 22.747l15.03 7.937 3.298-10.717L510 232.95l-14.937 46.595-3.156-.997zm-147.65-23.728l141.035 45.216 4.213-13.62-140.905-45.18-4.343 13.584zm-5.346 2.672l6.156-19.82 148.002 47.756-6.195 19.954-147.963-47.89zm126.49 71.786l-4.514-17.407-106.017-34.367-13.41 11.45L330 285.3l7.324-23.573 3.1 1.125-6.344 20.45 6.551 1.983 13.41-11.45 109.63 35.534 4.511 17.416 6.55 2.055 6.322-20.423 3.104 1.123-7.295 23.46-11.462-3.722zM385.748 88.174c.407 0 .797.196 1.04.52l1.493 1.979.675-2.381c.12-.412.43-.736.834-.87l2.357-.8-2.076-1.374a1.304 1.304 0 0 1-.576-1.05l-.035-2.474-1.955 1.53a1.3 1.3 0 0 1-.804.278h-.087l-.293-.055-2.387-.733.866 2.322c.15.391.093.833-.153 1.183l-1.437 2.027 2.538-.102zm3.068 6.638c-.404 0-.79-.192-1.034-.515l-2.66-3.526-4.442.18c-.52 0-.95-.26-1.178-.671-.24-.435-.209-.956.081-1.36l2.555-3.597-1.54-4.132a1.206 1.206 0 0 1 .163-1.14c.254-.367.66-.587 1.082-.587h.085l.256.052 4.247 1.303 3.484-2.729a1.296 1.296 0 0 1 1.356-.152c.453.215.734.652.74 1.14l.065 4.408 3.689 2.443c.413.275.63.75.565 1.237a1.274 1.274 0 0 1-.87 1.05l-4.196 1.419-1.198 4.241a1.265 1.265 0 0 1-.315.542c-.18.19-.423.324-.697.373l-.238.021zM13.523 525.18c.408 0 .8.196 1.043.52l1.492 1.98.674-2.383c.12-.41.43-.735.833-.87l2.359-.798-2.076-1.376a1.291 1.291 0 0 1-.576-1.049l-.036-2.474-1.956 1.529c-.236.184-.513.28-.801.28h-.09l-.293-.057-2.387-.732.868 2.322c.15.392.092.834-.153 1.183l-1.438 2.025 2.537-.1zm3.069 6.638c-.405 0-.791-.193-1.035-.514l-2.66-3.526-4.44.177c-.52 0-.952-.256-1.179-.669-.24-.434-.209-.956.083-1.36l2.552-3.597-1.538-4.134a1.2 1.2 0 0 1 .164-1.138c.254-.37.66-.587 1.081-.587h.084l.256.052 4.248 1.302 3.483-2.73a1.297 1.297 0 0 1 1.356-.15c.452.214.734.652.741 1.14l.065 4.408 3.688 2.443c.412.275.63.75.566 1.236-.066.494-.4.896-.871 1.051l-4.197 1.42-1.197 4.24a1.277 1.277 0 0 1-.314.543c-.181.19-.425.323-.697.373l-.24.02zM25.469 123.07c.407 0 .799.195 1.042.52l1.492 1.98.674-2.381c.12-.412.43-.736.834-.87l2.358-.8-2.076-1.375a1.291 1.291 0 0 1-.576-1.049l-.036-2.474-1.955 1.53a1.302 1.302 0 0 1-.804.277h-.087l-.293-.054-2.387-.733.868 2.322c.149.39.091.832-.155 1.183l-1.437 2.025 2.538-.1zm3.068 6.64c-.404 0-.79-.195-1.035-.516l-2.659-3.526-4.44.18c-.52 0-.952-.26-1.18-.671-.239-.435-.209-.956.083-1.36l2.553-3.599-1.539-4.132a1.203 1.203 0 0 1 .164-1.14c.254-.367.66-.585 1.081-.585h.085l.255.052 4.248 1.303 3.484-2.729a1.289 1.289 0 0 1 1.355-.154c.453.217.734.654.742 1.143l.064 4.407 3.689 2.443a1.279 1.279 0 0 1-.306 2.287l-4.196 1.417-1.198 4.243a1.263 1.263 0 0 1-.314.54c-.18.192-.424.325-.697.375l-.239.021zM62.15 233.091c.408 0 .797.196 1.04.52l1.495 1.979.673-2.38c.12-.413.432-.737.835-.873l2.357-.797-2.077-1.374a1.298 1.298 0 0 1-.575-1.05l-.034-2.475-1.957 1.53a1.297 1.297 0 0 1-.802.279h-.089l-.293-.056-2.384-.733.865 2.322a1.27 1.27 0 0 1-.154 1.183l-1.438 2.027 2.538-.102zm3.069 6.639a1.3 1.3 0 0 1-1.034-.516l-2.66-3.526-4.438.18c-.524 0-.955-.259-1.183-.67-.239-.436-.209-.957.083-1.361l2.553-3.597L57 226.108a1.206 1.206 0 0 1 .164-1.14c.254-.367.66-.587 1.082-.587h.084l.255.053 4.248 1.302 3.484-2.728a1.29 1.29 0 0 1 1.357-.153c.451.215.733.653.74 1.141l.065 4.407 3.688 2.444a1.282 1.282 0 0 1-.305 2.286l-4.196 1.419-1.198 4.241a1.277 1.277 0 0 1-.315.542c-.18.19-.424.325-.696.374l-.24.02zM115.4 179.263c.407 0 .797.195 1.04.52l1.494 1.978.674-2.38c.12-.412.431-.737.835-.872l2.357-.798-2.078-1.374a1.298 1.298 0 0 1-.574-1.05l-.035-2.474-1.957 1.53a1.297 1.297 0 0 1-.802.278h-.088l-.294-.055-2.384-.733.865 2.322a1.27 1.27 0 0 1-.153 1.183l-1.438 2.026 2.537-.101zm3.068 6.638a1.3 1.3 0 0 1-1.033-.515l-2.66-3.526-4.439.18c-.523 0-.955-.26-1.182-.671-.24-.435-.21-.956.083-1.361l2.552-3.596-1.539-4.133a1.206 1.206 0 0 1 .164-1.14c.255-.367.66-.586 1.082-.586h.084l.256.052 4.248 1.303 3.483-2.729a1.29 1.29 0 0 1 1.357-.152c.452.215.733.652.74 1.14l.065 4.408 3.688 2.443a1.282 1.282 0 0 1-.305 2.287l-4.195 1.418-1.2 4.242a1.277 1.277 0 0 1-.313.542c-.181.19-.425.324-.697.373l-.24.021zM269.022 190.787c.408 0 .8.194 1.043.52l1.492 1.979.674-2.38c.12-.413.432-.737.835-.873l2.357-.797-2.077-1.374a1.298 1.298 0 0 1-.575-1.05l-.035-2.475-1.957 1.53a1.301 1.301 0 0 1-.801.277h-.09l-.293-.054-2.384-.733.865 2.322c.15.393.093.834-.153 1.183l-1.438 2.027 2.537-.102zm3.07 6.639a1.3 1.3 0 0 1-1.034-.516l-2.66-3.526-4.44.18c-.523 0-.954-.259-1.18-.671-.24-.435-.209-.956.081-1.36l2.553-3.597-1.539-4.132a1.205 1.205 0 0 1 .164-1.141c.254-.368.66-.586 1.082-.586h.085l.256.053 4.247 1.302 3.484-2.729c.224-.179.51-.277.802-.277.188 0 .377.041.555.124.45.216.732.654.74 1.142l.064 4.407 3.689 2.444a1.282 1.282 0 0 1-.305 2.286l-4.196 1.419-1.199 4.241a1.262 1.262 0 0 1-.314.542c-.18.19-.424.323-.697.374l-.239.02zM34.227 654.505c.408 0 .797.196 1.041.52l1.494 1.98.674-2.382c.12-.41.43-.736.833-.872l2.359-.797-2.078-1.375a1.298 1.298 0 0 1-.574-1.048l-.036-2.475-1.956 1.53a1.296 1.296 0 0 1-.802.277h-.088l-.294-.055-2.384-.733.864 2.324c.15.393.093.832-.152 1.181l-1.438 2.027 2.537-.102zm3.069 6.64c-.405 0-.79-.193-1.034-.514l-2.659-3.528-4.439.179c-.525 0-.955-.258-1.182-.67-.24-.435-.21-.957.082-1.361l2.553-3.597-1.539-4.133a1.203 1.203 0 0 1 .164-1.14 1.325 1.325 0 0 1 1.08-.585h.086l.256.051 4.248 1.302 3.483-2.728c.225-.18.51-.277.802-.277.188 0 .378.042.554.124.453.215.734.653.741 1.141l.063 4.408 3.69 2.444c.412.276.63.75.566 1.236a1.27 1.27 0 0 1-.871 1.05l-4.195 1.42-1.2 4.24a1.277 1.277 0 0 1-.314.543c-.18.191-.424.324-.696.373l-.24.021zM214.882 154.78a5.911 5.911 0 0 1-2.881-1.663l-4.202-4.384a2.413 2.413 0 0 0-1.173-.667l-20.592-3.665c-4.8-.853-9.638-1.869-14.38-3.014a241.524 241.524 0 0 1-17.965-5.095 239.772 239.772 0 0 1-30.884-12.528l-18.624-9.112a2.608 2.608 0 0 0-.5-.175 2.478 2.478 0 0 0-.98-.039l-6.01 1.05a5.895 5.895 0 0 1-2.437-.074 5.84 5.84 0 0 1-3.201-2.038c-1.346-1.699-1.472-3.793-.334-5.469a119.263 119.263 0 0 0 20.465-61.728c.09-2.023 1.445-3.63 3.538-4.203a5.911 5.911 0 0 1 2.932-.045 5.956 5.956 0 0 1 2.878 1.655l4.205 4.39c.308.32.728.56 1.188.67l20.572 3.666a239.405 239.405 0 0 1 63.23 20.632l18.63 9.116c.157.073.327.134.5.174.324.08.66.092.971.038l6.01-1.054a5.898 5.898 0 0 1 5.644 2.119c1.344 1.696 1.47 3.79.333 5.47-12.422 18.322-19.499 39.667-20.465 61.725-.094 2.021-1.45 3.632-3.542 4.204a5.85 5.85 0 0 1-2.926.044m-7.454-8.913a5.963 5.963 0 0 1 2.865 1.644l4.208 4.39c.324.337.726.57 1.164.677.389.095.786.086 1.184-.016.832-.228 1.352-.838 1.385-1.637a121.454 121.454 0 0 1 20.811-63.033c.45-.662.397-1.46-.141-2.132a2.34 2.34 0 0 0-2.278-.861l-6.002 1.045a5.982 5.982 0 0 1-2.412-.087 6.133 6.133 0 0 1-1.245-.451l-18.638-9.14a236.877 236.877 0 0 0-48.15-17.425 236.194 236.194 0 0 0-14.145-2.987l-20.448-3.67-.367-.081a5.94 5.94 0 0 1-2.893-1.647l-4.21-4.39a2.385 2.385 0 0 0-2.347-.66c-.832.229-1.35.84-1.385 1.64a121.465 121.465 0 0 1-20.81 63.032c-.448.66-.396 1.458.14 2.133.335.42.777.707 1.284.828.321.081.655.089.995.03l6.006-1.042a5.914 5.914 0 0 1 2.413.088 5.546 5.546 0 0 1 1.237.446l18.64 9.14a236.692 236.692 0 0 0 62.298 20.411l20.445 3.67c.131.024.263.052.396.085" opacity=".7"/>
    </g>
</svg>
