<?xml version="1.0" encoding="UTF-8"?>
<svg width="27px" height="27px" viewBox="0 0 27 27" version="1.1" xmlns="http://www.w3.org/2000/svg" xmlns:xlink="http://www.w3.org/1999/xlink">
    <!-- Generator: Sketch 57.1 (83088) - https://sketch.com -->
    <title>Group 33</title>
    <desc>Created with Sketch.</desc>
    <g id="02_Product-Search" stroke="none" stroke-width="1" fill="none" fill-rule="evenodd">
        <g id="02A_V2_Inventory-Lookup-Zipcode_Accepted" transform="translate(-429.000000, -263.000000)">
            <g id="Group-33" transform="translate(430.000000, 264.000000)">
                <circle id="Oval" stroke="#67BC00" cx="12.5" cy="12.5" r="12.5"></circle>
                <g id="Check-Mark-Icon/Green" transform="translate(4.000000, 7.000000)">
                    <g id="check" transform="translate(-1.000000, -4.000000)">
                        <polygon id="Bounds" points="0 0 19 0 19 19 0 19"></polygon>
                        <polygon id="Icon" fill="#67BC00" fill-rule="nonzero" points="7.44911882 12.6785981 4.13018761 9.25801641 3 10.414616 7.44911882 15 17 5.15659955 15.8777715 4"></polygon>
                    </g>
                </g>
            </g>
        </g>
    </g>
</svg>