<svg xmlns="http://www.w3.org/2000/svg" width="30" height="20" viewBox="0 0 30 20">
    <g fill="none" fill-rule="evenodd">
        <rect width="30" height="20" fill="#E6772F" rx="2"/>
        <path fill="#FFF" d="M26.112 9.85h-.23V8.69h.23c.507 0 .737.215.737.56 0 .386-.23.6-.737.6zm1.566-.644c0-.73-.507-1.117-1.428-1.117H25.1v3.825h.782v-1.547h.092l1.06 1.547H28l-1.243-1.59c.552-.086.967-.559.92-1.118zm-5.295 2.708h2.21v-.645h-1.427v-1.031h1.381v-.645h-1.381v-.86h1.427V8.09h-2.21v3.825zm-2.302-1.246l-1.059-2.58h-.829L19.897 12h.414l1.704-3.911h-.829l-1.105 2.579zm-9.346-.645c0 1.074.92 1.977 2.072 1.977.368 0 .69-.086 1.013-.215v-.86c-.23.258-.553.43-.921.43-.737 0-1.335-.516-1.335-1.203v-.086c-.047-.688.552-1.29 1.289-1.333.368 0 .736.172.967.43v-.86c-.277-.171-.645-.214-.967-.214-1.197-.086-2.118.816-2.118 1.934zM9.308 9.55c-.46-.172-.599-.258-.599-.473.046-.258.276-.473.553-.43.23 0 .46.13.644.301l.414-.515c-.322-.258-.736-.43-1.15-.43-.645-.043-1.198.43-1.244 1.031v.043c0 .516.23.817.967 1.032.184.043.369.129.553.215.138.086.23.215.23.387a.58.58 0 0 1-.553.558h-.046a.912.912 0 0 1-.828-.515l-.507.472c.276.473.829.731 1.381.731.737.043 1.336-.473 1.382-1.16v-.13c-.046-.515-.277-.773-1.197-1.117zm-2.67 2.364h.782V8.089h-.783v3.825zm-1.566-.946a1.53 1.53 0 0 1-1.06.301h-.23V8.733h.23a1.53 1.53 0 0 1 1.06.301c.276.258.414.602.414.946 0 .387-.138.73-.414.988zm-.921-2.88H3v3.826h1.151c.506.043 1.013-.129 1.427-.43.46-.387.737-.902.737-1.461.046-1.032-.829-1.891-1.934-1.934h-.23zM16.168 8c-1.151 0-2.118.86-2.118 1.977 0 1.075.92 1.977 2.118 2.02a2.06 2.06 0 0 0 2.163-1.977C18.285 8.903 17.365 8 16.168 8z"/>
    </g>
</svg>
