<svg xmlns="http://www.w3.org/2000/svg" width="28" height="34" viewBox="0 0 28 34">
    <path fill="#000" fill-rule="evenodd" d="M27.365 9.202h-6.722a.627.627 0 0 0-.632.624c0 .346.284.624.632.624h6.09v22.3h-5.417V21.601a.628.628 0 0 0-.633-.624H7.315c-.35 0-.633.28-.633.624v11.151l-5.417-.002v-22.3h6.247c.35 0 .633-.28.633-.624a.627.627 0 0 0-.633-.624H.632A.627.627 0 0 0 0 9.826v23.55c0 .346.284.624.633.624h26.734c.35 0 .633-.28.633-.624l-.002-23.55a.627.627 0 0 0-.633-.624zM7.947 32.751V22.225h12.101V32.75h-12.1zm5.64-17.348C8.373 11.75 8.3 5.828 8.3 5.576 8.3 2.502 10.835 0 13.955 0 17.164 0 19.7 2.502 19.7 5.576c0 .252-.074 6.173-5.288 9.827a.661.661 0 0 1-.368.114h-.089a.642.642 0 0 1-.367-.114zm.457-14.153c-2.511 0-4.48 1.94-4.477 4.327 0 .051.081 5.283 4.434 8.575 4.37-3.303 4.434-8.522 4.434-8.576 0-2.384-1.97-4.326-4.39-4.326zm2.467 4.658c0 1.365-1.127 2.474-2.512 2.476-1.384 0-2.511-1.11-2.511-2.476 0-1.365 1.127-2.476 2.511-2.476 1.385 0 2.512 1.111 2.512 2.476zm-3.758 0c0 .676.559 1.227 1.246 1.227.688 0 1.246-.55 1.246-1.227S14.687 4.68 14 4.68c-.687 0-1.246.55-1.246 1.228z"/>
</svg>
