<?xml version="1.0" encoding="UTF-8"?>
<svg width="8px" height="14px" viewBox="0 0 14 25" version="1.1" xmlns="http://www.w3.org/2000/svg" xmlns:xlink="http://www.w3.org/1999/xlink">
    <!-- Generator: Sketch 50.2 (55047) - http://www.bohemiancoding.com/sketch -->
    <title>Arrow_White</title>
    <desc>Created with Sketch.</desc>
    <defs></defs>
    <g id="Page-1" stroke="none" stroke-width="1" fill="none" fill-rule="evenodd">
        <g id="Arrow_White" fill="#333333" fill-rule="nonzero">
            <path d="M1.58776469,24.2701461 C1.32301024,24.2701461 1.05866947,24.1713017 0.856380517,23.9736128 C0.452216298,23.5778298 0.452216298,22.9365562 0.856380517,22.5415834 L11.4449039,12.173853 L0.857621554,1.8053124 C0.453457335,1.40952947 0.453457335,0.768660889 0.857621554,0.373283056 C1.26178577,-0.0220947769 1.91622568,-0.0224998771 2.31997622,0.373283056 L13.6386427,11.4576358 C13.8326581,11.6476278 13.9414557,11.9048665 13.9414557,12.173853 C13.9414557,12.4428396 13.8322444,12.7000782 13.6386427,12.8900702 L2.31914887,23.9736128 C2.1172736,24.1713017 1.85251914,24.2701461 1.58776469,24.2701461 Z" id="Shape"></path>
        </g>
    </g>
</svg>