<svg xmlns="http://www.w3.org/2000/svg" width="32" height="22" viewBox="0 0 32 22">
    <g fill="none" fill-rule="evenodd">
        <path fill="#016FD0" d="M0 1.415C0 .633.632 0 1.41 0h28.118c.778 0 1.41.622 1.41 1.415v18.733c0 .781-.633 1.415-1.41 1.415H1.41C.63 21.563 0 20.94 0 20.148V1.415z" transform="translate(.25)"/>
        <g>
            <path fill="#FFF" d="M6.01 11.152v-4.81h5.12l.549.712.567-.712H30.83v4.478s-.486.327-1.048.332h-10.29l-.62-.759v.759h-2.03V9.857s-.276.181-.876.181h-.69v1.114h-3.073l-.549-.728-.557.728H6.01zM.03 2.717L1.186.039h1.997l.655 1.5v-1.5H6.32l.39 1.084L7.088.04h11.141v.545S18.815.04 19.778.04l3.615.013.644 1.48V.039h2.077l.571.85V.04h2.096v4.81h-2.096l-.548-.853v.853h-3.051l-.307-.758h-.82l-.302.758h-2.07c-.828 0-1.358-.534-1.358-.534v.534h-3.12l-.62-.758v.758H2.887l-.306-.758h-.818l-.305.758H.031V2.717z" transform="translate(.25) translate(0 5.156)"/>
            <path fill="#016FD0" fill-rule="nonzero" d="M1.594.632L.037 4.234H1.05l.287-.722h1.67l.286.722H4.33L2.775.632h-1.18zm.576.838l.51 1.26H1.66l.51-1.26z" transform="translate(.25) translate(0 5.156)"/>
            <path fill="#016FD0" d="M4.438 4.233L4.438.632 5.878.637 6.716 2.959 7.534.632 8.963.632 8.963 4.233 8.058 4.233 8.058 1.579 7.099 4.233 6.305 4.233 5.343 1.579 5.343 4.233zM9.583 4.233L9.583.632 12.536.632 12.536 1.437 10.497 1.437 10.497 2.053 12.489 2.053 12.489 2.811 10.497 2.811 10.497 3.451 12.536 3.451 12.536 4.233z" transform="translate(.25) translate(0 5.156)"/>
            <path fill="#016FD0" fill-rule="nonzero" d="M13.06.632v3.602h.905v-1.28h.382l1.085 1.28h1.106l-1.191-1.327c.489-.041.993-.459.993-1.106 0-.758-.598-1.169-1.265-1.169H13.06zm.905.806H15c.248 0 .429.193.429.379 0 .24-.234.379-.415.379h-1.049v-.758z" transform="translate(.25) translate(0 5.156)"/>
            <path fill="#016FD0" d="M17.634 4.233L16.71 4.233 16.71.632 17.634.632zM19.825 4.233h-.2c-.965 0-1.55-.756-1.55-1.786 0-1.055.579-1.815 1.798-1.815h1v.853h-1.037c-.495 0-.845.384-.845.971 0 .697.4.99.977.99h.238l-.38.787z" transform="translate(.25) translate(0 5.156)"/>
            <path fill="#016FD0" fill-rule="nonzero" d="M21.795.632l-1.557 3.602h1.013l.288-.722h1.67l.286.722h1.036L22.975.632h-1.18zm.576.838l.51 1.26h-1.02l.51-1.26z" transform="translate(.25) translate(0 5.156)"/>
            <path fill="#016FD0" d="M24.637 4.233L24.637.632 25.788.632 27.257 2.894 27.257.632 28.162.632 28.162 4.233 27.049 4.233 25.542 1.911 25.542 4.233zM6.629 10.536L6.629 6.934 9.583 6.934 9.583 7.74 7.544 7.74 7.544 8.356 9.535 8.356 9.535 9.114 7.544 9.114 7.544 9.754 9.583 9.754 9.583 10.536zM21.102 10.536L21.102 6.934 24.056 6.934 24.056 7.74 22.017 7.74 22.017 8.356 23.998 8.356 23.998 9.114 22.017 9.114 22.017 9.754 24.056 9.754 24.056 10.536zM9.697 10.536L11.135 8.757 9.663 6.934 10.803 6.934 11.68 8.061 12.56 6.934 13.656 6.934 12.203 8.735 13.644 10.536 12.503 10.536 11.652 9.426 10.821 10.536z" transform="translate(.25) translate(0 5.156)"/>
            <path fill="#016FD0" fill-rule="nonzero" d="M13.751 6.935v3.601h.93V9.4h.952c.806 0 1.417-.426 1.417-1.253 0-.685-.48-1.211-1.3-1.211h-1.999zm.93.814h1.003c.26 0 .446.159.446.415 0 .24-.185.415-.45.415h-1v-.83zM17.443 6.934v3.602h.905v-1.28h.381l1.086 1.28h1.106L19.73 9.209c.489-.041.993-.459.993-1.106 0-.758-.598-1.169-1.266-1.169h-2.014zm.905.806h1.035c.248 0 .429.193.429.379 0 .24-.234.379-.416.379h-1.048V7.74z" transform="translate(.25) translate(0 5.156)"/>
            <path fill="#016FD0" d="M24.475 10.536v-.782h1.811c.268 0 .384-.144.384-.302 0-.152-.115-.305-.384-.305h-.818c-.712 0-1.108-.431-1.108-1.078 0-.578.363-1.135 1.42-1.135h1.763l-.381.81h-1.525c-.291 0-.38.153-.38.298 0 .15.11.314.333.314h.857c.793 0 1.137.447 1.137 1.033 0 .63-.383 1.147-1.18 1.147h-1.93zM27.797 10.536v-.782h1.811c.268 0 .385-.144.385-.302 0-.152-.116-.305-.385-.305h-.818c-.712 0-1.108-.431-1.108-1.078 0-.578.363-1.135 1.42-1.135h1.763l-.381.81h-1.525c-.291 0-.38.153-.38.298 0 .15.11.314.333.314h.857c.793 0 1.138.447 1.138 1.033 0 .63-.384 1.147-1.181 1.147h-1.93z" transform="translate(.25) translate(0 5.156)"/>
        </g>
    </g>
</svg>
