<svg xmlns="http://www.w3.org/2000/svg" xmlns:xlink="http://www.w3.org/1999/xlink" width="30" height="30" viewBox="0 0 30 30">
    <defs>
        <path id="a" d="M0 0h14.658v14.82H0z"/>
    </defs>
    <g fill="none" fill-rule="evenodd">
        <circle cx="15" cy="15" r="15" fill="#C6C8CA"/>
        <g transform="translate(8 8)">
            <mask id="b" fill="#fff">
                <use xlink:href="#a"/>
            </mask>
            <path fill="#000" d="M14.497.351a.459.459 0 0 0-.665 0L7.415 6.75.825.142a.459.459 0 0 0-.664 0 .459.459 0 0 0 0 .665L6.75 7.415.142 14.022a.459.459 0 0 0 0 .665.458.458 0 0 0 .342.133.458.458 0 0 0 .342-.133l6.608-6.608 6.398 6.399c.095.095.21.133.342.133a.458.458 0 0 0 .342-.133.459.459 0 0 0 0-.665L8.098 7.415l6.399-6.4c.17-.19.17-.493 0-.664" mask="url(#b)"/>
        </g>
    </g>
</svg>
