<svg xmlns="http://www.w3.org/2000/svg" width="19" height="27" viewBox="0 0 19 27">
    <defs>
        <filter id="prefix__a">
            <feColorMatrix in="SourceGraphic" values="0 0 0 0 0.000000 0 0 0 0 0.635694 0 0 0 0 0.000000 0 0 0 1.000000 0"/>
        </filter>
    </defs>
    <g fill="none" fill-rule="evenodd" stroke-linecap="round" stroke-linejoin="round" filter="url(#prefix__a)" transform="translate(-291 -99)">
        <g stroke="#1A1A1A" stroke-width="1.25">
            <path d="M15.73 23.821H1.52c-.814 0-1.475-.66-1.475-1.475V10.79c0-.814.66-1.475 1.475-1.475H15.73c.815 0 1.476.66 1.476 1.475v11.556c0 .815-.66 1.475-1.476 1.475z" transform="translate(292 100.5)"/>
            <path d="M13.748 5.12v4.198H3.502V5.12C3.502 2.296 5.8 0 8.628 0c1.415 0 2.695.573 3.621 1.499.927.926 1.5 2.206 1.5 3.621zM4.414 16.494L7.271 19.351 12.836 13.786" transform="translate(292 100.5)"/>
        </g>
    </g>
</svg>
