<?xml version="1.0" encoding="UTF-8"?>
<svg width="11px" height="19px" viewBox="0 0 11 19" version="1.1" xmlns="http://www.w3.org/2000/svg" xmlns:xlink="http://www.w3.org/1999/xlink">
    <!-- Generator: Sketch 47 (45396) - http://www.bohemiancoding.com/sketch -->
    <title>Page 1</title>
    <desc>Created with Sketch.</desc>
    <defs>
        <polygon id="path-1" points="7.85714285e-05 19 11 19 11 7.91666667e-05 7.85714285e-05 7.91666667e-05"></polygon>
    </defs>
    <g id="Page-1" stroke="none" stroke-width="1" fill="none" fill-rule="evenodd">
        <g id="MF_Homepage_Mobile_Nav" transform="translate(-173.000000, -28.000000)">
            <g id="Page-1" transform="translate(173.000000, 28.000000)">
                <mask id="mask-2" fill="#333333">
                    <use xlink:href="#path-1"></use>
                </mask>
                <g id="Clip-2"></g>
                <path d="M8.26579286,1.5834125 L8.25793571,1.5834125 C8.04107857,1.5834125 7.86900714,1.76035 7.86900714,1.97924583 C7.86900714,2.19814167 8.04854286,2.37507917 8.26579286,2.37507917 C8.48265,2.37507917 8.65865,2.19814167 8.65865,1.97924583 C8.65865,1.76035 8.48265,1.5834125 8.26579286,1.5834125 L8.26579286,1.5834125 Z M10.2143643,3.16674583 L0.785792857,3.16674583 L0.785792857,2.7709125 C0.785792857,1.67920417 1.66697143,0.791745833 2.75007857,0.791745833 L8.25007857,0.791745833 C9.33318571,0.791745833 10.2143643,1.67920417 10.2143643,2.7709125 L10.2143643,3.16674583 Z M0.785792857,14.2500792 L10.2143643,14.2500792 L10.2143643,3.9584125 L0.785792857,3.9584125 L0.785792857,14.2500792 Z M10.2143643,16.2292458 C10.2143643,17.3209542 9.33318571,18.2084125 8.25007857,18.2084125 L2.75007857,18.2084125 C1.66697143,18.2084125 0.785792857,17.3209542 0.785792857,16.2292458 L0.785792857,15.0417458 L10.2143643,15.0417458 L10.2143643,16.2292458 Z M8.25007857,7.91666667e-05 L2.75007857,7.91666667e-05 C1.23404286,7.91666667e-05 7.85714285e-05,1.24339167 7.85714285e-05,2.7709125 L7.85714285e-05,16.2292458 C7.85714285e-05,17.7567667 1.23404286,19.0000792 2.75007857,19.0000792 L8.25007857,19.0000792 C9.76611429,19.0000792 11.0000786,17.7567667 11.0000786,16.2292458 L11.0000786,2.7709125 C11.0000786,1.24339167 9.76611429,7.91666667e-05 8.25007857,7.91666667e-05 L8.25007857,7.91666667e-05 Z M5.50007857,17.4167458 C5.9334,17.4167458 6.28579286,17.0620792 6.28579286,16.6250792 C6.28579286,16.1880792 5.9334,15.8334125 5.50007857,15.8334125 C5.06675714,15.8334125 4.71436429,16.1880792 4.71436429,16.6250792 C4.71436429,17.0620792 5.06675714,17.4167458 5.50007857,17.4167458 L5.50007857,17.4167458 Z M6.67865,1.5834125 L4.32150714,1.5834125 C4.10425714,1.5834125 3.92865,1.76035 3.92865,1.97924583 C3.92865,2.19814167 4.10425714,2.37507917 4.32150714,2.37507917 L6.67865,2.37507917 C6.8959,2.37507917 7.07150714,2.19814167 7.07150714,1.97924583 C7.07150714,1.76035 6.8959,1.5834125 6.67865,1.5834125 L6.67865,1.5834125 Z" id="Fill-1" stroke="#323030" stroke-width="0.2" fill="#333131" mask="url(#mask-2)"></path>
            </g>
        </g>
    </g>
</svg>