{
	"hooks": [
		{
			"name": "commercelink.api.test.publish",
			"script": "./hooks/chanel/ChannelPublish.js"
		},
		{
			"name": "commercelink.api.order.create",
			"script": "./hooks/order/CreateOrder.js"
		},
		{
			"name": "commercelink.api.order.createpos",
			"script": "./hooks/order/CreatePOSOrder.js"
		}
	]
}
