<?xml version="1.0" encoding="utf-8"?>
<!-- Generator: Adobe Illustrator 16.0.4, SVG Export Plug-In . SVG Version: 6.00 Build 0)  -->
<!DOCTYPE svg PUBLIC "-//W3C//DTD SVG 1.1//EN" "http://www.w3.org/Graphics/SVG/1.1/DTD/svg11.dtd">
<svg version="1.1" id="Layer_1" xmlns="http://www.w3.org/2000/svg" xmlns:xlink="http://www.w3.org/1999/xlink" x="0px" y="0px"
	 width="24px" height="24px" viewBox="0 0 24 24" enable-background="new 0 0 24 24" xml:space="preserve">
<path fill="none" d="M0,0.001h24v24H0V0.001z"/>
<polygon fill="#fff" points="20.255,11.257 12.732,11.257 12.732,3.748 11.242,3.748 11.242,11.257 3.746,11.257 3.746,12.748 11.242,12.748
	11.242,20.256 12.732,20.256 12.732,12.748 20.255,12.748 "/>
</svg>
