<?xml version="1.0" encoding="UTF-8"?>
<svg width="32px" height="27px" viewBox="0 0 32 27" version="1.1" xmlns="http://www.w3.org/2000/svg" xmlns:xlink="http://www.w3.org/1999/xlink">
    <!-- Generator: Sketch 59.1 (86144) - https://sketch.com -->
    <title>delivery-icon</title>
    <desc>Created with Sketch.</desc>
    <g id="ADA---12---Header" stroke="none" stroke-width="1" fill="none" fill-rule="evenodd">
        <g id="delivery-icon" fill="#06840E">
            <path d="M31.9904919,14.6629472 L29.3246175,7.32500274 C28.8424529,6.01165601 27.5479428,5.14593454 26.112239,5.17668038 L21.3269946,5.17668038 L21.3269946,3.23542524 C21.3269946,1.44854922 19.8350538,0 17.9946517,0 L3.3323429,0 C1.49194074,0 0,1.44854922 0,3.23542524 L0,21.3538066 C0,22.4259322 0.895164442,23.2950617 1.99940574,23.2950617 L4.06545834,23.2950617 C4.29946007,24.8895062 5.70568357,26.0740741 7.36447782,26.0740741 C9.02327206,26.0740741 10.4294956,24.8895062 10.6634973,23.2950617 L22.7932255,23.2950617 C23.1085934,24.8029795 24.4741381,25.8866455 26.0589215,25.8866455 C27.6437049,25.8866455 29.0092496,24.8029795 29.3246175,23.2950617 L30.057733,23.2950617 C31.1358629,23.26015 31.9910913,22.401162 31.9904919,21.3538066 L31.9904919,14.8829561 C32.0031694,14.8101363 32.0031694,14.735767 31.9904919,14.6629472 Z M3.3323429,1.2941701 L17.9946517,1.2941701 C19.098893,1.2941701 19.9940574,2.16329963 19.9940574,3.23542524 L19.9940574,16.8242112 L1.33293716,16.8242112 L1.33293716,3.23542524 C1.33293716,2.16329963 2.2281016,1.2941701 3.3323429,1.2941701 Z M7.33115439,24.5892318 C6.22691309,24.5892318 5.33174864,23.7201023 5.33174864,22.6479767 C5.33174864,21.5758511 6.22691309,20.7067215 7.33115439,20.7067215 C8.43539569,20.7067215 9.33056013,21.5758511 9.33056013,22.6479767 C9.33056013,23.7201023 8.43539569,24.5892318 7.33115439,24.5892318 Z M25.9922746,24.5892318 C24.8880333,24.5892318 23.9928689,23.7201023 23.9928689,22.6479767 C23.9928689,21.5758511 24.8880333,20.7067215 25.9922746,20.7067215 C27.0965159,20.7067215 27.9916804,21.5758511 27.9916804,22.6479767 C27.9916804,23.7201023 27.0965159,24.5892318 25.9922746,24.5892318 Z M30.6575547,21.3538066 C30.6575547,21.7111818 30.3591666,22.0008916 29.9910861,22.0008916 L29.3246175,22.0008916 C29.0092496,20.4929738 27.6437049,19.4093079 26.0589215,19.4093079 C24.4741381,19.4093079 23.1085934,20.4929738 22.7932255,22.0008916 L10.6634973,22.0008916 C10.3481294,20.4929738 8.98258463,19.4093079 7.39780124,19.4093079 C5.81301786,19.4093079 4.44747311,20.4929738 4.1321052,22.0008916 L1.99940574,22.0008916 C1.63132531,22.0008916 1.33293716,21.7111818 1.33293716,21.3538066 L1.33293716,18.1183813 L20.660526,18.1183813 C21.0286064,18.1183813 21.3269946,17.8286715 21.3269946,17.4712963 L21.3269946,6.47085048 L26.112239,6.47085048 C26.957491,6.47315693 27.7099319,6.99128242 27.9916804,7.76502058 L30.6575547,14.9994314 L30.6575547,21.3538066 Z" id="Shape" fill-rule="nonzero"></path>
            <path d="M24.3984674,12.8197531 L24.3984674,8.25679012 C24.3984674,7.89678229 24.124006,7.60493827 23.7854406,7.60493827 C23.4468752,7.60493827 23.1724138,7.89678229 23.1724138,8.25679012 L23.1724138,13.4716049 C23.1724138,13.8316128 23.4468752,14.1234568 23.7854406,14.1234568 L28.0766284,14.1234568 C28.4151937,14.1234568 28.6896552,13.8316128 28.6896552,13.4716049 C28.6896552,13.1115971 28.4151937,12.8197531 28.0766284,12.8197531 L24.3984674,12.8197531 Z" id="Path"></path>
            <path d="M10.4827645,16.2962963 C14.4422835,16.2962963 17.6527757,13.1372514 17.6551724,9.23884001 C17.6575664,5.34042865 14.4509587,2.177568 10.4914426,2.17283951 C6.53192647,2.1681216 3.31754395,5.32332282 3.31034483,9.22172845 C3.31034483,13.1238957 6.51943798,16.2892143 10.4827645,16.2962963 L10.4827645,16.2962963 Z M10.4827645,3.45679023 C12.8574733,3.45679023 14.9981047,4.86589963 15.9056433,7.02648391 C16.813182,9.1870682 16.3087166,11.6731976 14.6276772,13.3246157 C12.9466377,14.9760339 10.4204226,15.4671818 8.22799595,14.5688447 C6.0355693,13.6705076 4.60914401,11.5597828 4.61440655,9.22172845 C4.62875011,6.03869455 7.24981325,3.46381676 10.4827645,3.45679023 L10.4827645,3.45679023 Z" id="Shape" fill-rule="nonzero"></path>
            <path d="M13.092667,11.7589369 C13.2260906,11.8812395 13.412375,11.9506173 13.607343,11.9506173 C13.802311,11.9506173 13.9885954,11.8812395 14.122019,11.7589369 C14.2641831,11.6441537 14.3448276,11.4838948 14.3448276,11.3161656 C14.3448276,11.1484363 14.2641831,10.9881774 14.122019,10.8733942 L11.4015888,8.52038058 L11.4015888,4.97820955 C11.4015888,4.62887258 11.0724055,4.34567901 10.6663373,4.34567901 C10.2602692,4.34567901 9.93108592,4.62887258 9.93108592,4.97820955 L9.93108592,8.77339279 C9.92870878,8.94114478 10.0088191,9.10195403 10.1516613,9.21616417 L13.092667,11.7589369 Z" id="Path"></path>
        </g>
    </g>
</svg>