<svg xmlns="http://www.w3.org/2000/svg" xmlns:xlink="http://www.w3.org/1999/xlink" width="59" height="10" viewBox="0 0 59 10">
    <defs>
        <path id="a" d="M0 9.914h58.477V0H0z"/>
    </defs>
    <g fill="none" fill-rule="evenodd">
        <path fill="#231F20" d="M4.773 7.315c-.568.512-1.308.735-2.478.735H1.81V1.937h.486c1.17 0 1.88.209 2.478.748.627.555 1.003 1.416 1.003 2.3 0 .888-.376 1.775-1.003 2.33M2.658.371H0v9.244h2.644c1.406 0 2.421-.33 3.312-1.067a4.63 4.63 0 0 0 1.686-3.549c0-2.728-2.047-4.628-4.984-4.628"/>
        <mask id="b" fill="#fff">
            <use xlink:href="#a"/>
        </mask>
        <path fill="#231F20" d="M8.475 9.615h1.81V.37h-1.81zM14.714 3.918c-1.087-.4-1.406-.664-1.406-1.164 0-.582.568-1.024 1.349-1.024.542 0 .988.222 1.46.748l.948-1.235A4.072 4.072 0 0 0 14.337.218c-1.643 0-2.896 1.136-2.896 2.649 0 1.273.583 1.925 2.284 2.535.71.249 1.07.415 1.252.526.362.235.543.569.543.957 0 .749-.598 1.304-1.406 1.304-.864 0-1.56-.43-1.976-1.233l-1.17 1.121c.834 1.22 1.836 1.76 3.214 1.76 1.882 0 3.202-1.246 3.202-3.035 0-1.469-.61-2.134-2.67-2.884M17.955 5c0 2.716 2.143 4.823 4.9 4.823.78 0 1.447-.152 2.27-.538V7.162c-.723.722-1.365 1.013-2.186 1.013-1.823 0-3.118-1.317-3.118-3.19 0-1.774 1.335-3.174 3.034-3.174.864 0 1.518.307 2.27 1.04V.73c-.794-.402-1.448-.568-2.227-.568-2.744 0-4.943 2.15-4.943 4.837M39.483 6.58L37.008.37h-1.979l3.94 9.482h.974l4.01-9.481h-1.962zM44.773 9.615h5.135V8.05h-3.326V5.555h3.204V3.989h-3.204V1.937h3.326V.371h-5.135zM53.445 4.627h-.529v-2.8h.558c1.128 0 1.74.47 1.74 1.37 0 .93-.612 1.43-1.769 1.43M57.078 3.1c0-1.73-1.197-2.73-3.285-2.73h-2.686v9.245h1.81V5.9h.235l2.507 3.714h2.227L54.963 5.72c1.364-.277 2.115-1.206 2.115-2.621" mask="url(#b)"/>
        <path fill="#F48025" d="M35.573 4.999c0 2.715-2.209 4.915-4.936 4.915S25.7 7.714 25.7 4.999 27.91.084 30.637.084c2.727 0 4.936 2.2 4.936 4.915" mask="url(#b)"/>
        <path fill="#231F20" d="M57.701.665h-.033V.453h.036c.095 0 .146.034.146.104 0 .072-.051.108-.149.108m.344-.111c0-.162-.112-.25-.31-.25h-.261v.812h.194V.801l.229.315h.237l-.268-.335c.115-.03.179-.114.179-.227" mask="url(#b)"/>
        <path fill="#231F20" d="M57.772 1.29a.574.574 0 0 1-.566-.58c0-.324.25-.582.566-.582.31 0 .563.264.563.581 0 .32-.253.581-.563.581M57.775 0a.708.708 0 1 0 0 1.416.708.708 0 0 0 0-1.416" mask="url(#b)"/>
    </g>
</svg>
