<svg xmlns="http://www.w3.org/2000/svg" width="20" height="16" viewBox="0 0 20 16">
    <path fill="#F6D651" fill-rule="evenodd" d="M10.82 10.18V6.82H9.18v3.36h1.64zm0 3.32v-1.68H9.18v1.68h1.64zM.82 16L10 .18 19.18 16H.82z"/>
</svg>
