<svg width="48" height="48" xmlns="http://www.w3.org/2000/svg">
 <!-- Created with Method Draw - http://github.com/duopixel/Method-Draw/ -->
 <g>
  <title>background</title>
  <rect fill="none" id="canvas_background" height="50" width="50" y="-1" x="-1"/>
 </g>
 <g>
  <title>Layer 1</title>
  <path id="svg_2" d="m28.375,9.500004c0,0 -9.25,13.87499 -9.25,13.99999c0,0.125 9.75,15 9.75,15" stroke-width="1.5" stroke="#979797" fill="none"/>
 </g>
</svg>