<svg xmlns="http://www.w3.org/2000/svg" width="24" height="24" viewBox="0 0 24 24">
    <g fill="none" fill-rule="evenodd">
        <path d="M0 0H24V24H0z"/>
        <path fill="#000" fill-rule="nonzero" d="M3 15.038c0 .211.17.384.376.384h1.359v1.338c0 .21.17.383.376.383.207 0 .377-.173.377-.383v-1.338h13.578v1.338c0 .21.169.383.376.383s.376-.173.376-.383v-1.338h.806c.207 0 .376-.173.376-.384 0-.21-.17-.383-.376-.383H3.376c-.21 0-.376.172-.376.383m0-1.775c0 .211.17.384.376.384h17.248c.207 0 .376-.173.376-.384 0-.21-.17-.383-.376-.383H3.376c-.21 0-.376.173-.376.383m17.921-2.1c0-.211-.17-.384-.376-.384H7.49L3.745 6.141c-.132-.165-.369-.188-.53-.054-.162.134-.185.376-.053.54l3.857 4.777c.072.088.177.138.29.138h13.232c.21.004.38-.169.38-.38"/>
    </g>
</svg>
