<svg xmlns="http://www.w3.org/2000/svg" width="32" height="32" viewBox="0 0 32 32">
    <g fill="none" fill-rule="evenodd">
        <path d="M0 0H32V32H0z"/>
        <path fill="#000" fill-rule="nonzero" d="M4 20.32c0 .288.237.523.528.523h1.904v1.824c0 .287.238.522.528.522.29 0 .527-.235.527-.522v-1.824h19.035v1.824c0 .287.238.522.528.522.29 0 .528-.235.528-.522v-1.824h1.129c.29 0 .527-.235.527-.523 0-.287-.237-.522-.527-.522H4.527c-.295 0-.527.235-.527.522m0-2.419c0 .287.237.523.528.523h24.179c.29 0 .527-.236.527-.523 0-.287-.237-.523-.527-.523H4.527c-.295 0-.527.236-.527.523m25.123-2.864c0-.287-.237-.522-.527-.522H10.294l-5.25-6.323c-.184-.225-.516-.256-.743-.073-.227.183-.259.512-.074.737l5.408 6.51c.1.12.248.189.406.189h18.55c.295.005.532-.23.532-.518"/>
    </g>
</svg>
