<svg xmlns="http://www.w3.org/2000/svg" width="17.25px" height="16.625px" viewBox="31 0 17.25 16.625" >
<g>
	<g>
		<circle fill="#ffffff" fill-rule="evenodd" cx="41.767" cy="7.346" r="1.239"/>	
		<rect fill="#ffffff" fill-rule="evenodd" x="39.275" y="-0.777" transform="matrix(-0.7071 0.7071 -0.7071 -0.7071 73.5219 -13.8288)" width="0.699" height="18.179"/>
		<path fill="#ffffff" fill-rule="evenodd" d="M35.929,2.852h7.392c0.973,0,1.764,0.791,1.764,1.764v4.583l-2.208,1.515l2.414,2.414
			c0.189-0.331,0.298-0.712,0.298-1.119V4.616c0-1.251-1.017-2.268-2.268-2.268h-7.392c-0.407,0-0.789,0.109-1.119,0.298
			l0.374,0.374C35.41,2.914,35.662,2.852,35.929,2.852z"/>
		<path fill="#ffffff" fill-rule="evenodd" d="M41.461,11.685l-3.516-3.373l-3.78,3.032V4.616c0-0.267,0.061-0.519,0.168-0.746l-0.374-0.374
			c-0.189,0.331-0.298,0.712-0.298,1.119v7.392c0,1.251,1.017,2.268,2.268,2.268h7.392c0.407,0,0.789-0.109,1.119-0.298
			l-2.573-2.573L41.461,11.685z"/>
	</g>
</g>
</svg>
